
estate_vampires_install_thrall_disaster = {
	potential = {
		has_estate = estate_vampires
		is_year = 1445
		# NOT = { has_ruler_flag = is_a_vampire }
	}


	can_start = {
		has_any_disaster = no
		NOT = {
			estate_loyalty = {
				estate = estate_vampires
				loyalty = 20
			}
			has_country_modifier = vampire_thrall
		}
	}
	
	can_stop = {
		OR = {
			has_any_disaster = yes
			estate_loyalty = {
				estate = estate_vampires
				loyalty = 30
			}
		}
	}
	
	down_progress = {
		factor = 0
	}
	
	progress = {
		modifier = {
			factor = 0.5
			NOT = { stability = 0 }
		}
		
		modifier = {
			factor = 0.5
			NOT = { stability = 1 }
		}
		
		modifier = {
			factor = 0.5
			NOT = { stability = 2 }
		}
		
		modifier = {
			factor = 0.5
			NOT = { stability = 3 }
		}
		
		modifier = {
			factor = 0.5
			estate_influence = {
				estate = estate_vampires
				influence = 40
			}
		}
		
		modifier = {
			factor = 0.5
			estate_influence = {
				estate = estate_vampires
				influence = 50
			}
		}
		
		modifier = {
			factor = 0.5
			estate_influence = {
				estate = estate_vampires
				influence = 60
			}
		}
		
		modifier = {
			factor = 0.5
			estate_influence = {
				estate = estate_vampires
				influence = 70
			}
		}
		
		modifier = {
			factor = 0.5
			estate_influence = {
				estate = estate_vampires
				influence = 80
			}
		}
		
		modifier = {
			factor = 0.5
			estate_influence = {
				estate = estate_vampires
				influence = 90
			}
		}
	}
	
	can_end = {
		always = no
	}
	
	modifier = {	
		spy_offence = -0.5
		global_spy_defence = -0.5
	}

	on_start = disaster_vampire_masquerade.18
	#on_end = disaster_vampire_masquerade.1000
	
	on_monthly = {
		random_events = {
			3000 = 0
			100 = disaster_vampire_masquerade.21
			100 = disaster_vampire_masquerade.22
			100 = disaster_vampire_masquerade.23
		}
	}
}

