
#Bloodgroves
1012 = "Ilushinaboli"
1119 = "Ishepshain"
1120 = "Ugshamaboli"
1121 = "Erit'hiagola"
1123 = "Hdamutcha"
1995 = "Hdakipsasp"
2459 = "Aboliuhri"
2538 = "Ishepshaboli"

#Dalaire
1200 = "Monoebl"
1216 = "Khezken"
1217 = "Nadhtarak"
1218 = "Qelnardir"
1224 = "Kanchos"
1236 = "Akewrdir"
1237 = "Tugrkhir"
1238 = "Kheilderin"
1239 = "Kanderin"
1240 = "Shwarkhir"
1241 = "Erweradh"
2794 = "Appaiq"
2848 = "Radhcalrm"
2853 = "Kezrtaseth"

#Broken Isles
1746 = "Ardirken"