monarchy_mechanic = {
	monarchy = yes
	heir = yes
	queen = yes
	basic_reform = yes # = invisible/does not take up a slot
	valid_for_nation_designer = no
	custom_attributes = {
		enables_aristocratic_idea_group = yes
	}
	modifiers = {
		nobles_influence_modifier = 0.05
	}
}

#Feudalism vs Autocracy:

feudalism_reform = {
	icon = "castle"
	allow_normal_conversion = yes
	legacy_equivalent = feudal_monarchy
	valid_for_nation_designer = yes
	nation_designer_cost = 0
	modifiers = {
		vassal_income = 0.25
		nobles_influence_modifier = 0.05
		maratha_exclusive_influence_modifier = 0.05
		rajput_exclusive_influence_modifier = 0.05
	}
	ai = {
		factor = 0.5 #generic
	}
}

autocracy_reform = {
	icon = "crown"
	allow_normal_conversion = yes
	legacy_equivalent = despotic_monarchy
	valid_for_nation_designer = yes
	nation_designer_cost = 0
	modifiers = {
		unjustified_demands = -0.1
	}
	ai = {
		factor = 0.5 #generic
	}
}

plutocratic_reform = {
	icon = "asian_scripture"
	allow_normal_conversion = yes
	legacy_equivalent = despotic_monarchy
	potential = {
		OR = {
			# technology_group = indian
			# technology_group = muslim
			# technology_group = chinese
			# technology_group = east_african
			
			technology_group = tech_gnomish
			technology_group = tech_bulwari
			technology_group = tech_harimari
			technology_group = tech_raheni
			technology_group = tech_halessi
			culture_group = businori
			culture_group = taychendi_ruinborn_elf
			culture_group = kheionai_ruinborn_elf
			primary_culture = blue_reachman
			primary_culture = white_reachman
		}
	}
	valid_for_nation_designer = yes
	nation_designer_cost = 10
	modifiers = {
		merchants = 1
		nobles_influence_modifier = -0.05
		burghers_influence_modifier = 0.05
		vaisyas_influence_modifier = 0.05
	}
	custom_attributes = {
		enables_plutocratic_idea_group = yes
		enables_aristocratic_idea_group = no
	}
	boost_income = yes
	conditional = {
		allow = {
			has_dlc = "Leviathan"
		}
		allow_draft_transport_ships = yes
	}
	conditional = {
		allow = {
			has_dlc = "Res Publica"
			NOT = { has_dlc = "Mare Nostrum" }
		}
		can_use_trade_post = yes
	}
	conditional = {
		allow = {
			has_dlc = "Mare Nostrum"
			NOT = { has_dlc = "Res Publica" }
		}
		can_form_trade_league = yes
		trade_city_reform = trading_city
	}
	conditional = {
		allow = {
			has_dlc = "Res Publica"
			has_dlc = "Mare Nostrum"
		}
		can_use_trade_post = yes
		can_form_trade_league = yes
		trade_city_reform = trading_city
	}
	ai = {
		factor = 0.75 #generic
	}
}

# austrian_archduchy_reform = {
# 	icon = "austrian_archduchy_reform"
# 	allow_normal_conversion = yes
# 	legacy_equivalent = austrian_archduchy
# 	valid_for_nation_designer = yes
# 	potential = {
# 		OR = {
# 			tag = HAB
# 			was_tag = HAB
# 			has_reform = austrian_archduchy_reform
# 			have_had_reform = austrian_archduchy_reform
# 		}
# 	}
# 	nation_designer_cost = 0
# 	modifiers = {
# 		liberty_desire_from_subject_development = -0.33
# 		nobles_influence_modifier = 0.05
# 		maratha_exclusive_influence_modifier = 0.05
# 		rajput_exclusive_influence_modifier = 0.05
# 	}
# }

# grand_duchy_reform = {
# 	icon = "peasants"
# 	allow_normal_conversion = yes
# 	potential = {
# 		OR = {
# 			AND = {
# 				tag = LIT
# 				NOT = { map_setup = map_setup_random }
# 			}
# 			AND = {
# 				is_playing_custom_nation = yes
# 				have_had_reform = grand_duchy_reform
# 			}
# 		}
# 	}
# 	legacy_equivalent = despotic_monarchy
# 	fixed_rank = 1
# 	valid_for_nation_designer = yes
# 	nation_designer_cost = 10
# 	modifiers = {
# 		governing_capacity = 100
# 	}
# }

# indian_sultanate_reform = {
# 	icon = "indian_sultanate"
# 	allow_normal_conversion = yes
# 	potential = {
# 		OR = {
# 			capital_scope = {
# 				superregion = india_superregion
# 			}
# 			has_reform = indian_sultanate_reform
# 		}
# 		religion_group = muslim
# 	}
# 	valid_for_nation_designer = yes
# 	nation_designer_cost = 10
# 	nation_designer_trigger = {
# 		religion_group = muslim
# 		capital_scope = {
# 			superregion = india_superregion
# 		}
# 	}
# 	legacy_equivalent = indian_sultanate_legacy

# 	modifiers = {
# 		tolerance_heathen = 3
# 	}

# 	conditional = {
# 		allow = { has_dlc = "Cradle of Civilization" }
# 		government_abilities = {
# 			iqta_mechanic
# 		}
# 	}
# }

# shogunate = {
# 	icon = "shogunate"
# 	allow_normal_conversion = yes
# 	potential = {
# 		NOT = { has_country_flag = formed_japan_flag }
# 		OR = {
# 			AND = {
# 				capital_scope = {
# 					province_id = 1020
# 				}
# 				culture_group = japanese_g
# 				# NOT = { exists = JAP }
# 			}
# 			AND = {
# 				is_playing_custom_nation = yes
# 				have_had_reform = shogunate
# 			}
# 		}
# 	}
# 	valid_for_nation_designer = yes
# 	nation_designer_cost = 50
# 	nation_designer_trigger = {
# 		culture_group = japanese_g
# 		technology_group = chinese
# 		capital_scope = { region = japan_region }
# 		owns = 1020
# 	}
# 	legacy_equivalent = shogunate_legacy
# 	fixed_rank = 2
# 	maintain_dynasty = yes
# 	allow_vassal_war = yes
# 	allow_vassal_alliance = yes
# 	lock_level_when_selected = yes

# 	modifiers = {
# 		diplomats = 1
# 		envoy_travel_time = -0.25
# 		max_absolutism = 5
# 	}

# 	custom_attributes = {
# 		locked_government_type = yes
# 	}
# }

# daimyo = {
# 	icon = "daimyo"
# 	allow_normal_conversion = no
# 	potential = {
# 		NOT = { has_country_flag = formed_japan_flag }
# 		overlord = { has_reform = shogunate }
# 	}
# 	replacement_on_independence_war = indep_daimyo
# 	legacy_equivalent = daimyo_legacy
# 	fixed_rank = 1
# 	maintain_dynasty = yes
# 	valid_for_nation_designer = no
# 	nation_designer_cost = 0
# 	lock_level_when_selected = yes
# 	nation_designer_trigger = {
# 		culture_group = japanese_g
# 		technology_group = chinese
# 		capital_scope = { region = japan_region }
# 	}
# 	modifiers = {
# 		land_morale = 0.1
# 		infantry_power = 0.1
# 	}
# 	custom_attributes = {
# 		locked_government_type = yes
# 	}
# }

# indep_daimyo = {
# 	icon = "samurai"
# 	allow_normal_conversion = no
# 	potential = {
# 		NOT = { has_country_flag = formed_japan_flag }
# 		OR = {
# 			AND = {
# 				OR = {
# 					is_subject = no
# 					overlord = { NOT = { has_reform = shogunate } }
# 				}
# 				capital_scope = { region = japan_region }
# 				culture_group = japanese_g
# 			}
# 			AND = {
# 				is_playing_custom_nation = yes
# 				have_had_reform = indep_daimyo
# 			}
# 		}
# 	}
# 	valid_for_nation_designer = no	#Anbennar
# 	nation_designer_cost = 0
# 	nation_designer_trigger = {
# 		culture_group = japanese_g
# 		technology_group = chinese
# 		capital_scope = { region = japan_region }
# 	}
# 	legacy_equivalent = indep_daimyo_legacy
# 	maintain_dynasty = yes

# 	modifiers = {
# 		land_morale = 0.1
# 		infantry_power = 0.1
# 		governing_capacity = -150
# 	}
# 	custom_attributes = {
# 		locked_government_type = yes
# 	}
# }

celestial_empire = {
	icon = "celestial_empire"
	allow_normal_conversion = no
	potential = {
		if = {
			limit = {
				has_dlc = "Mandate of Heaven"
			}
			is_emperor_of_china = yes
		}
		else = {
			OR = {
				has_reform = celestial_empire
				AND = {
					culture_group = east_asian
					num_of_cities = 50
				}
			}
		}
		NOT = { has_global_flag = empire_of_china_dismantled }
	}
	legacy_equivalent = celestial_empire_legacy
	maintain_dynasty = yes
	allow_force_tributary = no
	valid_for_nation_designer = no	#Anbennar
	nation_designer_cost = 10
	lock_level_when_selected = yes
	nation_designer_trigger = {
		culture_group = east_asian
		technology_group = chinese
		capital_scope = {
			OR = {
				region = north_china_region
				region = xinan_region
				region = south_china_region
			}
		}
	}
	factions = {
		temples
		enuchs
		bureaucrats
	}

	fixed_rank = 3
	start_territory_to_estates = 0.9

	modifiers = {
		prestige = 0.5
		church_influence_modifier = -0.1
		nobles_influence_modifier = -0.1
		burghers_influence_modifier = -0.1
		artificers_influence_modifier = -0.1	#Anbennar
		governing_capacity = 470
	}
	
	ai = {
		factor = 1000 # should always be picked if available
	}

	custom_attributes = {
		locked_government_type = yes
	}

	conditional = {
		allow = { has_dlc = "Mandate of Heaven" }
		has_meritocracy = yes
		factions = {}
	}
}

elective_monarchy = {
	icon = "elective_monarchy"
	allow_normal_conversion = yes
	potential = {
		OR = {
			has_reform = elective_monarchy
			AND = {
				is_playing_custom_nation = yes
				have_had_reform = elective_monarchy
			}
		}
	}
	legacy_equivalent = elective_monarchy_legacy
	lock_level_when_selected = yes
	valid_for_nation_designer = yes
	nation_designer_cost = 10
	nation_designer_trigger = {
		has_dlc = "Res Publica"
	}
	modifiers = {
		vassal_income = 0.25
		global_unrest = -1
		max_absolutism = -30
		governing_capacity = 100
	}

	conditional = {
		allow = { has_dlc = "Res Publica" }
		is_elective = yes
	}
	custom_attributes = {
		locked_government_type = yes
	}
}

# iqta = {
# 	icon = "muslim"
# 	allow_normal_conversion = yes
# 	potential = {
# 		religion_group = muslim
# 	}
# 	valid_for_nation_designer = no	#Anbennar
# 	nation_designer_cost = 10
# 	nation_designer_trigger = {
# 		religion_group = muslim
# 	}

# 	legacy_equivalent = iqta_legacy
# 	queen = no
# 	modifiers = {
# 		vassal_income = 0.33
# 		global_tax_modifier = 0.05
# 	}

# 	conditional = {
# 		allow = { has_dlc = "Cradle of Civilization" }
# 		government_abilities = {
# 			iqta_mechanic
# 		}
# 	}
# }

# english_monarchy = {
# 	icon = "british_queen"
# 	allow_normal_conversion = no
# 	potential = {
# 		have_had_reform = english_monarchy
# 	}
# 	lock_level_when_selected = yes
# 	valid_for_nation_designer = yes
# 	nation_designer_cost = 15
# 	nation_designer_trigger = {
# 		has_dlc = "Common Sense"
# 	}
# 	legacy_equivalent = english_monarchy_legacy
# 	start_territory_to_estates = 0.3
# 	modifiers = {
# 		governing_capacity = 50
# 		legitimacy = 0.5
# 		global_unrest = -1
# 		max_absolutism = -30
# 	}

# 	conditional = {
# 		allow = { has_dlc = "Common Sense" }
# 		has_parliament = yes

# 		custom_attributes = {
# 			blocked_call_diet = yes
# 		}
# 	}
# }

# ottoman_government = {
# 	lock_level_when_selected = yes
# 	allow_normal_conversion = yes
# 	icon = "ottoman_government"
# 	potential = {
# 		religion_group = muslim
# 		OR = {
# 			AND = {
# 				tag = TUR
# 				NOT = { map_setup = map_setup_random }
# 			}
# 			AND = {
# 				tag = RUM
# 				NOT = { map_setup = map_setup_random }
# 			}
# 			AND = {
# 				is_playing_custom_nation = yes
# 				have_had_reform = ottoman_government
# 			}
# 		}
# 	}
# 	valid_for_nation_designer = no	#Anbennar
# 	nation_designer_cost = 20
# 	nation_designer_trigger = {
# 		religion_group = muslim
# 	}
# 	legacy_equivalent = ottoman_government_legacy
# 	maintain_dynasty = yes
# 	modifiers = {
# 		unjustified_demands = -0.1
# 		legitimacy = 0.5
# 		max_absolutism = 5
# 		governing_capacity = 150
# 	}

# 	custom_attributes = {
# 		locked_government_type = yes
# 	}

# 	conditional = {
# 		allow = { has_dlc = "Cradle of Civilization" }
# 		has_pashas = yes
# 	}
# 	conditional = {
# 		allow = { has_dlc = "Rights of Man" }
# 		has_harem = yes
# 	}
# }

# prussian_monarchy = {
# 	icon = "prussian_monarchy"
# 	allow_normal_conversion = yes
# 	potential = {
# 		OR = {
# 			#AND = {
# 			#	tag = PRU
# 			#	NOT = { map_setup = map_setup_random }
# 			#}
# 			#AND = {
# 			#	tag = GER
# 			#	have_had_reform = prussian_monarchy
# 			#}
# 			AND = {
# 				is_playing_custom_nation = yes
# 				have_had_reform = prussian_monarchy
# 			}
# 		}
# 	}
# 	trigger = {
# 		OR = {
# 			is_playing_custom_nation = yes
# 			have_had_reform = prussian_monarchy
# 			have_had_reform = prussian_republic_reform
# 		}
# 	}
# 	valid_for_nation_designer = yes
# 	nation_designer_cost = 100
# 	legacy_equivalent = prussian_monarchy_legacy

# 	modifiers = {
# 		war_exhaustion = -0.02
# 		global_unrest = -2
# 		global_autonomy = -0.075
# 		max_absolutism = 10
# 		monarch_military_power = 3
# 		nobles_loyalty_modifier = 0.1
# 		governing_capacity_modifier = -0.5
# 	}

# 	conditional = {
# 		allow = { has_dlc = "Rights of Man" }
# 		militarised_society = yes
# 	}
# }

# austrian_dual_monarchy = {
# 	icon = "austrian_dual_monarchy_reform"
# 	allow_normal_conversion = yes
# 	legacy_equivalent = austrian_archduchy
# 	potential = { #added via script
# 		has_dlc = "Emperor"
# 		OR = {
# 			has_reform = austrian_dual_monarchy
# 			have_had_reform = austrian_dual_monarchy
# 		}
# 	}
# 	valid_for_nation_designer = yes
# 	nation_designer_cost = 100
# 	nation_designer_trigger = {
# 		has_dlc = "Emperor"
# 	}

# 	modifiers = {
# 		num_accepted_cultures = 2
# 		global_unrest = -2
# 		monarch_diplomatic_power = 2
# 		promote_culture_cost = -0.33
# 	}
# }

# principality = {
# 	icon = "russian_principality"
# 	allow_normal_conversion = yes
# 	potential = {
# 		NOT = { has_reform = tsardom }
# 		NOT = { have_had_reform = tsardom }
# 		religion = orthodox
# 		OR = {
# 			culture_group = east_slavic
# 			AND = {
# 				is_playing_custom_nation = yes
# 				have_had_reform = principality
# 			}
# 		}
# 	}
# 	fixed_rank = 1
# 	legacy_equivalent = principality_legacy
# 	valid_for_nation_designer = no
# 	nation_designer_cost = 5
# 	nation_designer_trigger = {
# 		culture_group = east_slavic
# 		religion = orthodox
# 	}
# 	modifiers = {
# 		global_unrest = -1
# 		global_tax_modifier = 0.05
# 		governing_capacity = 100
# 	}

# 	conditional = {
# 		allow = { has_dlc = "Third Rome" }
# 		government_abilities = {
# 			russian_mechanic
# 		}
# 	}
# }

# tsardom = {
# 	icon = "king"
# 	allow_normal_conversion = yes
# 	potential = {
# 		religion = orthodox
# 		OR = {
# 			AND = {
# 				tag = RUS
# 				NOT = { map_setup = map_setup_random }
# 			}
# 			AND = {
# 				tag = UKR
# 				NOT = { map_setup = map_setup_random }
# 			}
# 			AND = {
# 				is_playing_custom_nation = yes
# 				have_had_reform = tsardom
# 			}
# 		}
# 	}
# 	fixed_rank = 3
# 	legacy_equivalent = tsardom_legacy
# 	valid_for_nation_designer = no	#Anbennar
# 	nation_designer_cost = 40

# 	nation_designer_trigger = {
# 		culture_group = east_slavic
# 		religion = orthodox
# 	}

# 	modifiers = {
# 		global_manpower_modifier = 0.20
# 		yearly_absolutism = 0.5
# 		global_autonomy = -0.05
# 		governing_capacity = 250
# 	}

# 	conditional = {
# 		allow = { has_dlc = "Third Rome" }
# 		government_abilities = {
# 			russian_mechanic
# 		}
# 		claim_states = yes
# 	}
# }

# mamluk_government = {
# 	icon = "mamluk_government"
# 	allow_normal_conversion = yes
# 	potential = {
# 		religion_group = muslim
# 		OR = {
# 			AND = {
# 				tag = MAM
# 				NOT = { map_setup = map_setup_random }
# 			}
# 			have_had_reform = mamluk_government
# 		}
# 	}
# 	legacy_equivalent = mamluk_government_legacy
# 	queen = no

# 	valid_for_nation_designer = no	#Anbennar
# 	nation_designer_cost = 60	

# 	nation_designer_trigger = {
# 		religion_group = muslim
# 	}

# 	modifiers = {
# 		num_accepted_cultures = 3
# 		#-50% cost to promote cultures
# 		global_autonomy = -0.025
# 		monarch_admin_power = 2
# 		same_culture_advisor_cost = -0.25
# 		promote_culture_cost = -0.5
# 		governing_capacity = 50
# 		nobles_influence_modifier = 0.1
# 	}

# 	conditional = {
# 		allow = { has_dlc = "Cradle of Civilization" }
# 		government_abilities = {
# 			mamluk_mechanic
# 		}
# 		heir = no
# 		foreign_slave_rulers = yes
# 	}
# }

# feudal_theocracy = {
# 	icon = "feudal_theocracy"
# 	allow_normal_conversion = yes
# 	potential = {
# 		OR = {
# 			AND = {
# 				religion_group = muslim
# 				has_reform = feudal_theocracy
# 			}
# 			AND = {
# 				is_playing_custom_nation = yes
# 				have_had_reform = feudal_theocracy
# 			}
# 		}
# 	}
# 	nation_designer_trigger = {
# 		religion_group = muslim
# 	}
# 	legacy_equivalent = feudal_theocracy_legacy
# 	valid_for_nation_designer = no	#Anbennar
# 	nation_designer_cost = 60
# 	modifiers = {
# 		missionaries = 1
# 		global_missionary_strength = 0.01
# 		tolerance_own = 2
# 		governing_capacity = 50
# 		brahmins_hindu_loyalty_modifier = 0.05
# 		church_loyalty_modifier = 0.05
# 	}

# 	conditional = {
# 		allow = { has_dlc = "Cradle of Civilization" }
# 		government_abilities = {
# 			feudal_theocracy_mechanic
# 		}
# 	}
# }

# mughal_government = {
# 	icon = "peacock_throne"
# 	allow_normal_conversion = yes
# 	potential = {
# 		has_dlc = "Dharma"
# 		AND = {
# 			tag = MUG
# 			NOT = { map_setup = map_setup_random }
# 		}
# 	}
# 	lock_level_when_selected = yes
# 	legacy_equivalent = feudal_monarchy

# 	modifiers = {
# 		tolerance_own = 1
# 		governing_capacity = 150
# 	}

# 	assimilation_cultures = {
# 		altaic = {
# 			artillery_cost = -0.1
# 		}
# 		baltic = {
# 			naval_forcelimit_modifier = 0.05
# 		}
# 		british = {
# 			ship_durability = 0.05
# 		}
# 		burman = {
# 			free_leader_pool = 1
# 		}
# 		byzantine = {
# 			legitimacy = 0.25
# 		}
# 		carpathian = {
# 			mercenary_cost = -0.1
# 		}
# 		caucasian = {
# 			mercenary_discipline = 0.05
# 		}
# 		gaelic = {
# 			shock_damage = 0.05
# 		}
# 		central_indic = {
# 			land_attrition = -0.1
# 		}
# 		east_asian = {
# 			state_maintenance_modifier = -0.2
# 		}
# 		kongo_group = {
# 			heir_chance = 0.5
# 		}
# 		cushitic = {
# 			missionaries = 1
# 		}
# 		dravidian = {
# 			global_trade_goods_size_modifier = 0.05
# 		}
# 		african = {
# 			global_tax_income = 10
# 		}
# 		east_slavic = {
# 			land_forcelimit_modifier = 0.1
# 		}
# 		eastern_aryan = {
# 			production_efficiency = 0.05
# 		}
# 		evenks = {
# 			cavalry_flanking = 0.2
# 		}
# 		french = {
# 			diplomats = 1
# 		}
# 		germanic = {
# 			global_institution_spread = 0.15
# 		}
# 		great_lakes_group = {
# 			loot_amount = 0.5
# 		}
# 		hindusthani = {
# 			core_creation = -0.1
# 		}
# 		iberian = {
# 			global_colonial_growth = 10
# 		}
# 		iranian = {
# 			advisor_cost = -0.1
# 		}
# 		japanese_g = {
# 			land_morale = 0.1
# 		}
# 		kamchatkan_g = {
# 			hostile_attrition = 1
# 		}
# 		korean_g = {
# 			idea_cost = -0.05
# 		}
# 		latin = {
# 			embracement_cost = -0.1
# 		}
# 		lost_cultures_group = {
# 			discipline = 0.05
# 		}
# 		turko_semitic = {
# 			cavalry_power = 0.1
# 		}
# 		maghrebi = {
# 			privateer_efficiency = 0.25
# 		}
# 		malay = {
# 			merchants = 1
# 		}
# 		mande = {
# 			tolerance_heretic = 1
# 		}
# 		pacific = {
# 			global_sailors_modifier = 0.1
# 		}
# 		sahelian = {
# 			movement_speed = 0.1
# 		}
# 		scandinavian = {
# 			mil_advisor_cost = -0.1
# 		}
# 		southeastasian_group = {
# 			development_cost = -0.05
# 		}
# 		south_slavic = {
# 			warscore_cost_vs_other_religion = -0.1
# 		}
# 		southern_african = {
# 			inflation_reduction = 0.05
# 		}
# 		sudanese = {
# 			caravan_power = 0.1
# 		}
# 		tartar = {
# 			cavalry_cost = -0.15
# 		}
# 		thai_group = {
# 			build_cost = -0.05
# 		}
# 		tibetan_group = {
# 			prestige_per_development_from_conversion = 0.5
# 		}
# 		finno_ugric = {
# 			prestige_decay = -0.01
# 		}
# 		west_african = {
# 			global_autonomy = -0.01
# 		}
# 		west_slavic = {
# 			leader_land_fire = 1
# 		}
# 		western_aryan = {
# 			trade_efficiency = 0.05
# 		}
# 	}
# }

revolutionary_empire_reform = {
	lock_level_when_selected = yes
	icon = "rioting_burning_2"
	allow_normal_conversion = no
	potential = {
		has_reform = revolutionary_empire_reform
	}
	legacy_equivalent = revolutionary_empire
	valid_for_new_country = no
	uses_revolutionary_zeal = yes
	revolutionary = yes
	fixed_rank = 3
	modifiers = {
		global_manpower_modifier = 0.25
		land_morale = 0.10
		global_autonomy = -0.2
		governing_capacity = 150
		max_revolutionary_zeal = 50
	}

	custom_attributes = {
		locked_government_type = yes
		#is_technocracy = yes	#Anbennar, why the hell was this here? -Jay
	}

	removed_effect = {
		hidden_effect = {
			if = {
				limit = {
					has_country_flag = is_revolutionary_china_flag
					is_revolutionary = no
				}
				clr_country_flag = is_revolutionary_china_flag
				restore_country_name = yes
				override_country_name = CHINA_STRING
				set_country_flag = is_china_flag
			}
			if = {
				limit = {
					has_country_flag = is_revolutionary_turkey_flag
					is_revolutionary = no
				}
				clr_country_flag = is_revolutionary_turkey_flag
				restore_country_name = yes
				override_country_name = TURKEY_STRING
				set_country_flag = is_turkey_flag
			}
			if = {
				limit = {
					has_country_flag = is_revolutionary_gurkani_flag
					is_revolutionary = no
				}
				clr_country_flag = is_revolutionary_gurkani_flag
				restore_country_name = yes
				override_country_name = GURKANI_EMPIRE_STRING
				set_country_flag = is_gurkani_flag
			}
		}
	}
}

# mandala_reform = {
# 	icon = "mandala_system"
# 	allow_normal_conversion = yes
# 	potential = {
# 		NOT = { religion = shinto }
# 		NOT = { religion = confucianism }
# 		OR = {
# 			religion_group = eastern
# 			religion_group = dharmic
# 			religion_group = muslim
# 			religion = animism
# 		}
# 		technology_group = chinese
# 		OR = {
# 			has_dlc = "Leviathan"
# 			has_dlc = "Dharma"
# 		}
# 	}
# 	valid_for_nation_designer = no
# 	nation_designer_cost = 10
# 	nation_designer_trigger = {
# 		NOT = { religion = shinto }
# 		NOT = { religion = confucianism }
# 		OR = {
# 			religion_group = eastern
# 			religion_group = dharmic
# 			religion_group = muslim
# 		}
# 		technology_group = chinese
# 		OR = {
# 			has_dlc = "Leviathan"
# 			has_dlc = "Dharma"
# 		}
# 	}
# 	legacy_equivalent = despotic_monarchy
# 	modifiers = {
# 		vassal_income = 0.15
# 		vassal_forcelimit_bonus = 1
# 		governing_capacity_modifier = -0.33
# 	}
# 	free_concentrate_development = yes
# }

# nayankara_reform = {
# 	icon = "nayankara_system"
# 	allow_normal_conversion = yes
# 	potential = {
# 		has_dlc = "Dharma"
# 		technology_group = indian
# 		OR = {
# 			religion_group = dharmic
# 			religion = buddhism
# 			religion = vajrayana
# 			religion = mahayana
# 		}
# 		OR = {
# 			culture_group = dravidian
# 			primary_culture = oriya
# 			primary_culture = sinhala
# 		}
# 	}
# 	valid_for_nation_designer = no
# 	nation_designer_cost = 10
# 	legacy_equivalent = feudal_monarchy
# 	nation_designer_trigger = {
# 		technology_group = indian
# 		OR = {
# 			religion_group = dharmic
# 			religion = buddhism
# 			religion = vajrayana
# 			religion = mahayana

# 		}
# 		OR = {
# 			culture_group = dravidian
# 			primary_culture = oriya
# 			primary_culture = sinhala
# 		}
# 	}
# 	modifiers = {
# 		vassal_forcelimit_bonus = 1
# 		global_manpower_modifier = 0.15
# 	}
# }

# misl_confederacy_reform = {
# 	allow_normal_conversion = yes
# 	icon = "misl_confederacy"
# 	potential = {
# 		has_dlc = "Dharma"
# 		religion = sikhism
# 	}
# 	valid_for_nation_designer = no
# 	nation_designer_cost = 10
# 	nation_designer_trigger = {
# 		religion = sikhism
# 	}
# 	legacy_equivalent = feudal_monarchy
# 	modifiers = {
# 		global_manpower_modifier = 0.1
# 		land_maintenance_modifier = -0.1
# 	}
# }

# rajput_kingdom = {
# 	icon = "rajput_kingdom"
# 	allow_normal_conversion = yes
# 	potential = {
# 		has_dlc = "Dharma"
# 		OR = {
# 			culture_group = western_aryan
# 			primary_culture = vindhyan
# 		}
# 		NOT = { primary_culture = marathi }
# 		technology_group = indian
# 	}
# 	valid_for_nation_designer = no
# 	nation_designer_cost = 10
# 	nation_designer_trigger = {
# 		OR = {
# 			culture_group = western_aryan
# 			primary_culture = vindhyan
# 		}
# 		NOT = { primary_culture = marathi }
# 		technology_group = indian
# 	}
# 	legacy_equivalent = feudal_monarchy
# 	modifiers = {
# 		army_tradition = 0.25
# 	}
# }

# gond_kingdom = {
# 	icon = "chieftain"
# 	allow_normal_conversion = yes
# 	potential = {
# 		has_dlc = "Dharma"
# 		technology_group = indian
# 		primary_culture = gondi
# 	}
# 	valid_for_nation_designer = yes
# 	nation_designer_cost = 0
# 	nation_designer_trigger = {
# 		technology_group = indian
# 		primary_culture = gondi
# 	}
# 	legacy_equivalent = tribal_kingdom_legacy
# 	modifiers = {
# 		defensiveness = 0.2
# 	}
# }

# siamese_absolutism = {
# 	icon = "indian_crown"
# 	allow_normal_conversion = yes
# 	potential = {
# 		OR = {
# 			has_country_flag = siam_royal_absolutism
# 			has_reform = siamese_absolutism
# 		}
# 	}
# 	valid_for_nation_designer = no
# 	modifiers = {
# 		max_absolutism = 10
# 		monarch_admin_power = 1
# 	}
# 	free_concentrate_development = yes
# }

# confucian_bureaucracy = {
# 	icon = "warrior_monks_reform"
# 	allow_normal_conversion = yes
# 	valid_for_nation_designer = yes
# 	nation_designer_cost = 0
# 	nation_designer_trigger = {
# 		OR = {
# 			religion = confucianism
# 			primary_culture = vietnamese
# 		}
# 	}
# 	potential = {
# 		OR = {
# 			religion = confucianism
# 			primary_culture = vietnamese
# 		}
# 	}
# 	valid_for_nation_designer = yes
# 	modifiers = {
# 		advisor_cost = -0.1
# 	}
# 	ai = {
# 		factor = 100
# 	}
# }

# sakdina_system_reform = {
# 	icon = "sakdina_system_reform"
# 	allow_normal_conversion = yes
# 	valid_for_nation_designer = yes
# 	nation_designer_cost = 0
# 	nation_designer_trigger = {
# 		OR = {
# 			primary_culture = central_thai
# 			primary_culture = northern_thai
# 		}
# 	}
# 	potential = {
# 		OR = {
# 			primary_culture = central_thai
# 			primary_culture = northern_thai
# 		}
# 	}
# 	valid_for_nation_designer = no
# 	modifiers = {
# 		stability_cost_modifier = -0.05
# 		global_unrest = -2
# 	}
# 	ai = {
# 		factor = 100
# 	}
# }

# uparaja_reform = {
# 	icon = "uparaja_reform"
# 	allow_normal_conversion = yes
# 	valid_for_nation_designer = yes
# 	nation_designer_cost = 0
# 	nation_designer_trigger = {
# 		religion = buddhism
# 		technology_group = chinese
# 	}
# 	potential = {
# 		religion = buddhism
# 		technology_group = chinese
# 	}
# 	valid_for_nation_designer = no
# 	modifiers = {
# 		monthly_heir_claim_increase = 0.05
# 		legitimacy = 0.5
# 		prestige = 0.5
# 	}
# 	ai = {
# 		factor = 1.5
# 		modifier = {
# 			factor = 2
# 			legitimacy = 75
# 		}
# 		modifier = {
# 			factor = 3
# 			tag = SIA
# 		}
# 	}
# }

# Anbennar
wine_lord_reform = {
	potential = {
		OR = {
			culture_group = lencori
			primary_culture = rosanda
		}
	}
	trigger = {
		OR = {
			culture_group = lencori
			primary_culture = rosanda
		}
		any_owned_province = {
			OR = {
				trade_goods = wine
			}
		}
	}
	icon = "merchant"
	allow_normal_conversion = yes
	valid_for_nation_designer = yes
	nation_designer_cost = 0
	nation_designer_trigger = {
		OR = {
			culture_group = lencori
			primary_culture = rosanda
		}
	}
	modifiers = {
		nobles_influence_modifier = 0.1
	}
	effect = {
		custom_tooltip = producing_wine_winelord
		hidden_effect = {
			every_owned_province = {
				if = {
					limit = {
						trade_goods = wine
					}
					add_province_modifier = { 
						name = wine_lord_wine
						duration = -1
						hidden = yes
					}
				}
			}
		}
	}
	removed_effect = {
		hidden_effect = {
			every_owned_province = {
				limit = {
					has_province_modifier = wine_lord_wine
				}
				remove_province_modifier = wine_lord_wine
			}
		}
	}
}

blademarches_kingdom_reform = {
	icon = "blademarches_kingdom"
	allow_normal_conversion = no
	potential = {
		OR = {
			tag = B33
			AND = { 
				is_playing_custom_nation = yes
				have_had_reform = blademarches_kingdom_reform
			}
		}
	}
	valid_for_nation_designer = yes
	nation_designer_cost = 50
	nation_designer_trigger = {
	
	}
	legacy_equivalent = feudal_monarchy
	lock_level_when_selected = yes
	modifiers = {
		leader_land_shock = 1
		army_tradition = 0.25
		monarch_military_power = 1
	}
	custom_attributes = {
		locked_government_type = yes
	}
}

adventurer_kingdom_reform = {	#Adventurer Kingdom
	icon = "soldiers_2"
	allow_normal_conversion = yes
	potential = {
		OR = {
			AND = {
				is_playing_custom_nation = yes
				have_had_reform = adventurer_kingdom_reform
			}
			has_country_flag = adventurer_derived_government
		}
	}
	legacy_equivalent = despotic_monarchy
	valid_for_nation_designer = yes
	nation_designer_cost = 20
	nation_designer_trigger = {
	
	}
	modifiers = {
		army_tradition_decay = -0.01
		unjustified_demands = -0.1
		improve_relation_modifier = -0.1
		colonists = 1
		
		adventurers_influence_modifier = 0.1
	}
}

enlightened_empire_reform = {  #Aelnar government
	icon = "soldiers_2"
	allow_normal_conversion = no
	potential = {
		OR = {
			AND = { 
				has_country_flag = aelnar_government
				OR = {
					tag = Z43
				}
			}
			AND = {
				is_playing_custom_nation = yes
				have_had_reform = enlightened_empire_reform
			}
		}
	}
	valid_for_nation_designer = yes
	nation_designer_cost = 10
	nation_designer_trigger = {
		culture_group = elven
	}
	legacy_equivalent = feudal_monarchy
	lock_level_when_selected = yes
	fixed_rank = 3
	queen = yes
	
	factions = {
		aelnar_blaiddtar
		aelnar_cymscal
		aelnar_suir
	}
	
	modifiers = {
		promote_culture_cost = 2
		governing_capacity_modifier = 0.1
		tolerance_own = 1
		culture_conversion_cost = -0.25
		max_absolutism = 15
	}
	custom_attributes = {
		locked_government_type = yes
		claim_states = yes
	}
}

orcish_kingdom_reform = {
	icon = "tribal_martial_society"
	allow_normal_conversion = yes
	potential = {
		OR = {
			culture_group = orcish
			culture_is_half_orcish = yes
		}
	}
	legacy_equivalent = feudal_monarchy
	valid_for_nation_designer = yes
	nation_designer_cost = 0
	nation_designer_trigger = {
		culture_group = orcish
	}

	modifiers = {
		war_exhaustion = -0.03
		global_regiment_cost = -0.1
		colonists = 1
	}
}

ogre_kingdom = {
	icon = "misl_confederacy"
	allow_normal_conversion = no
	potential = {
		has_reform = ogre_kingdom
	}
	legacy_equivalent = feudal_monarchy
	valid_for_nation_designer = yes
	nation_designer_cost = 10
	nation_designer_trigger = {
		culture_group = ogre
	}
	lock_level_when_selected = yes
	maintain_dynasty = yes

	modifiers = {
		defensiveness = 0.15
		land_morale = 0.05
		max_absolutism = 10
		global_unrest = 3
		global_institution_spread = -0.2
	}
}

mengotsa = {
	icon = "admiral_king_reform"
	allow_normal_conversion = no
	fixed_rank = 3
	potential = {
		has_reform = mengotsa
	}
	legacy_equivalent = tsardom_legacy
	valid_for_nation_designer = yes
	nation_designer_cost = 50
	nation_designer_trigger = {
		culture_group = ogre
	}
	
	lock_level_when_selected = yes
	maintain_dynasty = yes
	allow_force_tributary = yes

	modifiers = {
		defensiveness = 0.2
		vassal_income = 0.2
		land_morale = 0.1
		land_maintenance_modifier = -0.1
		max_absolutism = 20
	}
	custom_attributes = {
		locked_government_type = yes
		claim_states = yes
	}
}

ogre_empire = {
	icon = "rajput_kingdom"
	allow_normal_conversion = no
	fixed_rank = 3
	potential = {
		has_reform = ogre_empire
	}
	legacy_equivalent = feudal_monarchy
	valid_for_nation_designer = yes
	nation_designer_cost = 75
	nation_designer_trigger = {
		culture_group = ogre
	}
	
	lock_level_when_selected = yes
	maintain_dynasty = yes

	modifiers = {
		defensiveness = 0.3
		build_cost = -0.15
		land_morale = 0.075
		development_cost = -0.1
		land_maintenance_modifier = -0.1
		global_institution_spread = -0.1
		max_absolutism = 15
	}
}

great_ogre_horde = {
	icon = "become_rev_empire_reform"
	allow_normal_conversion = no
	fixed_rank = 3
	potential = {
		has_reform = great_ogre_horde
	}
	legacy_equivalent = tsardom_legacy
	valid_for_nation_designer = yes
	nation_designer_cost = 100
	nation_designer_trigger = {
		culture_group = ogre
	}

	lock_level_when_selected = yes
	
	maintain_dynasty = yes

	modifiers = {
		global_manpower_modifier = 0.5
		land_forcelimit_modifier = 0.5
		reinforce_cost_modifier = -0.4
		global_institution_spread = -0.75
		diplomatic_upkeep = -4
		diplomatic_reputation = -3
		
		monthly_reform_progress_modifier = -0.75
		
		hostile_attrition = 2
	}
	custom_attributes = {
		locked_government_type = yes
		claim_states = yes
	}
}

jadd_empire = {
	icon = "feudal_theocracy"
	allow_normal_conversion = no
	lock_level_when_selected = yes
	fixed_rank = 3
	potential = {
		OR = {
			OR = {
				tag = F51
				tag = F99
			}
			AND = {
				have_had_reform = jadd_empire
				is_playing_custom_nation = yes
			}
		}
	}
	legacy_equivalent = feudal_theocracy_legacy
	valid_for_nation_designer = yes
	nation_designer_trigger = {
		religion = the_jadd
	}
	nation_designer_cost = 60
	modifiers = {
		missionaries = 1
		global_missionary_strength = 0.01
		tolerance_own = 2
		tolerance_heathen = -2
		tolerance_heretic = -2
		max_absolutism = 15
		governing_capacity = 250 
	}
	custom_attributes = {
		locked_government_type = yes
	}
}

invasion_forces = {
	icon = "invasion_forces"
	allow_normal_conversion = no
	lock_level_when_selected = yes
	potential = {
		OR = {
			tag = H94
			is_playing_custom_nation = yes
		}
	}
	valid_for_nation_designer = yes
	nation_designer_cost = 30

	heir = no
	queen = no
	royal_marriage = no
	fixed_rank = 1
	
	modifiers = {
		core_creation = -0.1
		unjustified_demands = -0.1
		province_warscore_cost = -0.1
		ae_impact = 0.2
		land_forcelimit_modifier = 0.2
		diplomatic_reputation = -1
		war_exhaustion = -0.05
		improve_relation_modifier = -0.2
	}
	custom_attributes = {
		locked_government_type = yes
		generals_become_rulers = yes
	}
}

oak_monarchy_reform = {
	icon = "mandala_system"
	allow_normal_conversion = no
	lock_level_when_selected = yes
	potential = {
		OR = {
			has_country_flag = oak_monarchy_reform
			AND = {
				have_had_reform = oak_monarchy_reform
				is_playing_custom_nation = yes
			}
		}
	}
	valid_for_nation_designer = yes
	nation_designer_cost = 60
	nation_designer_trigger = {
	
	}
	modifiers = {
		diplomatic_reputation = 1
		yearly_absolutism = 0.5
		advisor_cost = 0.1
	}
	custom_attributes = {
		locked_government_type = yes
		heir = no
		queen = no
		rulers_can_be_generals = no
		cyranvar_special_election = yes
	}
}

cyranvar_parliament_reform = {
	icon = "judge"
	lock_level_when_selected = yes
	potential = {
		has_country_flag = cyranvar_parliament_reform
	}
	trigger = {
		OR = {
			NOT = { has_estate = estate_nobles }
			crown_stronger_than_estate = { estate = estate_nobles }
			has_reform = cyranvar_parliament_reform
		}
		if = {
			limit = { NOT = { has_dlc = "Mandate of Heaven" } }
			NOT = { has_reform = celestial_empire }
			NOT = { is_revolutionary_republic_trigger = yes }
		}
	}
	modifiers = {
		global_unrest = -1
	}

	conditional = {
		allow = { has_dlc = "Common Sense" }
		has_parliament = yes
		custom_attributes = {
			blocked_call_diet = yes
		}
	}	
	post_removed_effect = {
		give_estate_land_share_init = { estate = estate_nobles }
	}
}

dwarven_clan_reform = {
	icon = "peacock_throne"
	allow_normal_conversion = yes
	potential = {
		culture_group = dwarven
	}
	legacy_equivalent = feudal_monarchy
	valid_for_nation_designer = yes
	nation_designer_cost = 0
	nation_designer_trigger = {
		culture_group = dwarven
	}

	modifiers = {
		enemy_core_creation = 0.15
		global_manpower_modifier = 0.1
	}
}


hobgoblin_stratocracy_reform = {
	icon = "soldiers_5"
	allow_normal_conversion = no
	potential = {
		OR = {
			culture_group = hobgoblin
		}
	}
	valid_for_nation_designer = yes
	nation_designer_cost = 0
	nation_designer_trigger = {
		culture_group = hobgoblin
	}
	legacy_equivalent = feudal_monarchy
	heir = no
	
	modifiers = {
		global_manpower_modifier = 0.1
		land_maintenance_modifier = -0.1
		monarch_military_power = 1
	}
	custom_attributes = {
		locked_government_type = yes
		generals_become_rulers = yes
	}
	factions = {
		hob_wolf_command
		hob_boar_command
		hob_lion_command
	}
}

prabhi_reform = {
	icon = "muslim"
	allow_normal_conversion = no
	lock_level_when_selected = yes
	maintain_dynasty = yes
	potential = {
		OR = {
			technology_group = tech_raheni
			technology_group = tech_harimari
		}
		OR = {
			has_reform = prabhi_reform
		}
		OR = {
			overlord = { has_reform = raja_reform }
			any_known_country = {
				war_with = ROOT
				has_reform = raja_reform
			}
		}
	}
	valid_for_nation_designer = yes
	nation_designer_cost = 10
	nation_designer_trigger = {
		OR = {
			technology_group = tech_raheni
			technology_group = tech_harimari
		}
	}

	legacy_equivalent = daimyo_legacy
	modifiers = {
		development_cost = -0.1
		land_forcelimit = 1
	}
	custom_attributes = {
		locked_government_type = yes
	}
}

indep_prabhi_reform = {
	icon = "muslim"
	allow_normal_conversion = no
	maintain_dynasty = yes
	potential = {
		OR = {
			technology_group = tech_raheni
			technology_group = tech_harimari
		}
		OR = {
			is_subject = no
			NOT = { overlord = { has_reform = raja_reform } }
		}
		4411 = { owner = { has_reform = raja_reform } }
	}
	valid_for_nation_designer = yes
	nation_designer_cost = 10
	nation_designer_trigger = {
		OR = {
			technology_group = tech_raheni
			technology_group = tech_harimari
		}
	}

	legacy_equivalent = indep_daimyo_legacy
	modifiers = {
		development_cost = -0.1
	}
	custom_attributes = {
		locked_government_type = yes
	}
}

senapti_reform = {
	icon = "muslim"
	allow_normal_conversion = no
	lock_level_when_selected = yes
	maintain_dynasty = yes
	potential = {
		OR = {
			technology_group = tech_raheni
			technology_group = tech_harimari
		}
		OR = {
			has_reform = senapti_reform
		}
		OR = {
			overlord = { has_reform = raja_reform }
			any_known_country = {
				war_with = ROOT
				has_reform = raja_reform
			}
		}
	}
	valid_for_nation_designer = yes
	nation_designer_cost = 10
	nation_designer_trigger = {
		OR = {
			technology_group = tech_raheni
			technology_group = tech_harimari
		}
	}

	legacy_equivalent = daimyo_legacy
	modifiers = {
		diplomatic_upkeep = -1
		global_manpower_modifier = 0.1
		fort_maintenance_modifier = -0.1
		land_forcelimit = 2
	}
	custom_attributes = {
		locked_government_type = yes
	}
}

raja_reform = {
	icon = "shogunate"
	allow_normal_conversion = yes
	potential = {
		OR = {
			AND = {
				capital_scope = {
					province_id = 4411
				}
				has_reform = raja_reform
			}
			AND = {
				is_playing_custom_nation = yes
				have_had_reform = raja_reform
			}
		}
	}
	valid_for_nation_designer = yes
	nation_designer_cost = 50
	nation_designer_trigger = {
		OR = {
			technology_group = tech_raheni
			technology_group = tech_harimari
		}
		OR ={
			AND = {
				capital_scope = { province_id = 4411 }
			}
		}
	}
	legacy_equivalent = shogunate_legacy
	fixed_rank = 2
	maintain_dynasty = yes
	allow_vassal_war = yes
	allow_vassal_alliance = yes
	lock_level_when_selected = yes

	modifiers = {
		monarch_admin_power = 1
		governing_capacity_modifier = -0.5
		max_absolutism = -20
	}

	custom_attributes = {
		locked_government_type = yes
	}
}

phoenix_akalate = {
	icon = "muslim"
	allow_normal_conversion = yes
	lock_level_when_selected = yes
	potential = {
		primary_culture = sun_elf
		OR = {
			religion = bulwari_sun_cult
			has_country_flag = updating_isolationism_window
		}
	}
	valid_for_nation_designer = yes
	nation_designer_cost = 10
	nation_designer_trigger = {
		primary_culture = sun_elf
		religion = bulwari_sun_cult
	}

	legacy_equivalent = iqta_legacy
	modifiers = {
		vassal_income = 0.33
		tolerance_own = 1
	}

	conditional = {
		allow = { has_dlc = "Cradle of Civilization" }
		government_abilities = {
			iqta_mechanic
		}
	}
}

damerian_monarchy = {
	icon = "british_queen"
	allow_normal_conversion = no
	potential = {
		OR = {
			primary_culture = west_damerian
			primary_culture = east_damerian
			primary_culture = rogieran
			primary_culture = pashainey
		}
	}
	valid_for_nation_designer = yes
	nation_designer_cost = 15
	nation_designer_trigger = {
		has_dlc = "Common Sense"
	}
	start_territory_to_estates = 0.3
	modifiers = {
		diplomatic_reputation = 1
		global_unrest = -1
		max_absolutism = -10
	}

	conditional = {
		allow = { has_dlc = "Common Sense" }
		has_parliament = yes
		custom_attributes = {
			blocked_call_diet = yes
		}
	}
}

phoenix_empire = {
	icon = "phoenix_empire"
	allow_normal_conversion = yes
	potential = {
		has_reform = phoenix_empire
	}
	valid_for_nation_designer = no
	nation_designer_cost = 50
	nation_designer_trigger = {
		religion = bulwari_sun_cult
	}

	modifiers = {
		max_absolutism = 15
		global_autonomy = -0.1
		province_warscore_cost = -0.1
		tolerance_own = 2
		governing_capacity = 250 
	}

	conditional = {
		allow = { has_dlc = "Third Rome" }
		claim_states = yes
	}
}

kharunyana_monarchy = {
	icon = "merchant_ship"
	allow_normal_conversion = no
	potential = {
		OR = {
			has_reform = kharunyana_monarchy
			have_had_reform = kharunyana_monarchy
		}
	}
	lock_level_when_selected = yes
	valid_for_nation_designer = yes
	nation_designer_cost = 15
	nation_designer_trigger = {
		has_dlc = "Common Sense"
	}
	legacy_equivalent = english_monarchy_legacy
	start_territory_to_estates = 0.3
	modifiers = {
		governing_capacity = 250
		legitimacy = 0.5
		global_trade_power = 0.2
		num_accepted_cultures = 2
	}

	conditional = {
		allow = { has_dlc = "Common Sense" }
		has_parliament = yes
		custom_attributes = {
			blocked_call_diet = yes
		}
	}
}
dynastic_castanor_trials_reform = {
	icon = "commander_king_reform"
	allow_normal_conversion = no
	maintain_dynasty = yes
	potential = {
		OR = {
			tag = Z34
			tag = B32
			AND = {
				is_playing_custom_nation = yes
				have_had_reform = dynastic_castanor_trials_reform
			}
		}
	}
	valid_for_nation_designer = yes
	nation_designer_cost = 50
	legacy_equivalent = feudal_monarchy
	lock_level_when_selected = yes
	
	modifiers = {
		max_absolutism = 10
		free_mil_policy = 1
	}
	custom_attributes = {
		locked_government_type = yes
	}
}

original_castanor_trials_reform = {
	icon = "landscape"
	allow_normal_conversion = no
	maintain_dynasty = yes
	potential = {
		OR = {
			tag = Z34
			tag = B32
			AND = {
				is_playing_custom_nation = yes
				have_had_reform = dynastic_castanor_trials_reform
			}
		}
	}
	lock_level_when_selected = yes
	heir = no
	valid_for_nation_designer = yes
	nation_designer_cost = 25
	royal_marriage = no
	modifiers = {
		max_absolutism = 10
		free_mil_policy = 1
	}
	custom_attributes = {
		locked_government_type = yes
		castanor_special_succession = yes
	}
}

neckcliffer_admirality = {
	icon = "merchant_ship"
	allow_normal_conversion = no
	lock_level_when_selected = yes
	trigger = {
		OR = {
			has_reform = neckcliffer_admirality
			have_had_reform = neckcliffer_admirality
		}
	}
	potential = {
		tag = A22
	}
	valid_for_nation_designer = yes
	nation_designer_cost = 50
	nation_designer_trigger = {
		has_dlc = "Common Sense"
	}
	start_territory_to_estates = 0.3
	queen = no	#Can be removed if PDX ever fixes the consort general/admiral bug
	modifiers = {
		leader_naval_fire = 1
		global_naval_engagement_modifier = 0.1
		naval_morale = 0.1
	}
	custom_attributes = {
		force_admiral_leader = yes
	}
}

karashari_empire = {
	icon = "muslim"
	allow_normal_conversion = yes
	lock_level_when_selected = yes
	potential = {
		primary_culture = karashari_orc
	}
	valid_for_nation_designer = yes
	nation_designer_cost = 0
	nation_designer_trigger = {
		primary_culture = karashari_orc
	}
	fixed_rank = 3

	legacy_equivalent = iqta_legacy
	modifiers = {
		governing_capacity_modifier = -0.5
		vassal_income = 0.5
		diplomatic_upkeep = 1
	}

	conditional = {
		allow = { has_dlc = "Cradle of Civilization" }
		government_abilities = {
			iqta_mechanic
		}
	}
}

underkingdom_reform = {
	icon = "chieftain"
	allow_normal_conversion = yes
	maintain_dynasty = yes
	potential = {
		primary_culture = cave_goblin
		OR = {
			has_reform = underkingdom_reform
			have_had_reform = underkingdom_reform
			tag = I99
			#tag = H88
			#tag = H92
			#tag = H93
		}
	}
	lock_level_when_selected = yes
	fixed_rank = 2
	legacy_equivalent = feudal_monarchy
	valid_for_nation_designer = yes
	nation_designer_cost = 50
	nation_designer_trigger = {
		primary_culture = cave_goblin
	}
	
	#allow_vassal_war = yes #goblinraj
	#allow_vassal_alliance = yes
	modifiers = {
		advisor_pool = 2 #lots of social advancement
		free_adm_policy = 1 #flexible administration
		global_regiment_cost = -0.1 #harkens back to squatter gov
		#diplomatic_upkeep = 2 # subject gameplay
		#vassal_income = 0.2
		#vassal_forcelimit_bonus = 0.2
	}

	custom_attributes = {
		claim_states = yes
	}

	ai = {
		factor = 100
	}
}

underempire_reform = {
	icon = "chieftain"
	allow_normal_conversion = yes
	maintain_dynasty = yes
	potential = {
		primary_culture = cave_goblin
		OR = {
			has_reform = underempire_reform
			have_had_reform = underempire_reform
			tag = I99
			#tag = H88
			#tag = H92
			#tag = H93
		}
	}
	lock_level_when_selected = yes
	fixed_rank = 3
	legacy_equivalent = feudal_monarchy
	valid_for_nation_designer = yes
	nation_designer_cost = 75
	nation_designer_trigger = {
		primary_culture = cave_goblin
	}
	allow_vassal_war = yes #goblinraj
	allow_vassal_alliance = yes
	modifiers = {
		advisor_pool = 3 #lots of social advancement
		free_policy = 1 #flexible administration
		diplomatic_upkeep = 2 # subject gameplay
		vassal_income = 0.2
		vassal_forcelimit_bonus = 0.2
	}

	custom_attributes = {
		claim_states = yes
	}

	ai = {
		factor = 1000
	}
}

reformed_goblinoid_kingdom_reform = {
	icon = "tribal_civil_society"
	allow_normal_conversion = yes
	maintain_dynasty = yes
	potential = {
		OR = {
			culture_group = goblin
			#culture_group = hobgoblin
		}
	}
	legacy_equivalent = feudal_monarchy
	valid_for_nation_designer = yes
	nation_designer_cost = 10
	nation_designer_trigger = {
		culture_group = goblin
	}

	custom_attributes = {
		enables_plutocratic_idea_group = yes
		enables_aristocratic_idea_group = no
		is_technocracy = yes #?
	}
	allow_force_tributary = yes
	modifiers = {
		tolerance_heathen = 1
		burghers_influence_modifier = 0.2
	}
	
	ai = {
		factor = 10
	}
}

corvurian_midnight_reform = {
	icon = "midnight_monarchy" #icon taken from an Anbennar mission icon
	allow_normal_conversion = no
	legacy_equivalent = despotic_monarchy
	valid_for_nation_designer = yes
	nation_designer_cost = 10
	lock_level_when_selected = yes
	potential = {
		OR = {
			has_reform = corvurian_midnight_reform
			AND = {
				has_country_flag = has_vampires
				has_country_flag = corvurian_embraced_vampires
			}
		}
	}
	modifiers = {
		max_absolutism = 30
		monarch_admin_power = 1
		vampires_loyalty_modifier = 0.10
		monthly_reform_progress_modifier = -0.10
	}
	custom_attributes = {
		locked_government_type = yes
	}
	ai = {
		factor = 10
	}
}

griffon_lords_reform = {	
	icon = "griffon_lords"
	allow_normal_conversion = no
	potential = {
		has_reform = griffon_lords_reform
		OR = {
			primary_culture = marrodic
			is_playing_custom_nation = yes
		}
	}
	legacy_equivalent = despotic_monarchy
	valid_for_nation_designer = yes
	nation_designer_cost = 20
	modifiers = {
		army_tradition_decay = -0.01
		leader_land_manuever = 1
		nobles_influence_modifier = 0.1
		nobles_loyalty_modifier = 0.1
	}
}

griffon_empire_reform = {	
	icon = "griffon_empire"
	allow_normal_conversion = no
	potential = {
		has_reform = griffon_empire_reform 
		OR = {
			primary_culture = marrodic
			is_playing_custom_nation = yes
		}
	}
	legacy_equivalent = despotic_monarchy
	valid_for_nation_designer = yes
	nation_designer_cost = 40
	fixed_rank = 3
	modifiers = {
		leader_land_shock = 1
		leader_land_manuever = 2
		nobles_influence_modifier = 0.1
		nobles_loyalty_modifier = 0.2
		movement_speed = 0.2
	}
}

malacnar_monarchy = {
	icon = "soldiers_5"
	allow_normal_conversion = no
	lock_level_when_selected = yes
	potential = {
		OR = {
			AND = {
				tag = G32
				NOT = { map_setup = map_setup_random }
			}
			is_playing_custom_nation = yes
		}
	}
	trigger = {
		OR = {
			is_playing_custom_nation = yes
			tag = G32
		}
		custom_trigger_tooltip = {
			tooltip = reformed_malacnar_flag_tt
			NOT = { has_country_flag = reformed_malacnar_flag }
		}
	}
	valid_for_nation_designer = yes
	nation_designer_cost = 0
	legacy_equivalent = prussian_monarchy_legacy

	modifiers = {
		loot_amount = 0.5
		min_autonomy = 15
		general_cost = -0.1
		land_maintenance_modifier = -0.1
		governing_capacity_modifier = -0.25
	}
	
	custom_attributes = {
		generals_become_rulers = yes
		locked_government_type = yes
	}
	
	heir = no
}

malacnar_monarchy_reformed = {
	icon = "king"
	allow_normal_conversion = yes
	lock_level_when_selected = yes
	potential = {
		OR = {
			AND = {
				tag = G32
				has_country_flag = reformed_malacnar_flag
				NOT = { map_setup = map_setup_random }
			}
			is_playing_custom_nation = yes
		}
	}
	trigger = {
		OR = {
			is_playing_custom_nation = yes
			have_had_reform = malacnar_monarchy
		}
		OR = { 
			custom_trigger_tooltip = {
			tooltip = reformed_malacnar_flag_alt_tt
			has_country_flag = reformed_malacnar_flag
			}
			is_playing_custom_nation = yes
		}
	}
	valid_for_nation_designer = yes
	nation_designer_cost = 75
	legacy_equivalent = prussian_monarchy_legacy

	modifiers = {
		war_exhaustion = -0.02
		discipline = 0.05
		global_unrest = -1
		max_absolutism = 10
		monarch_military_power = 2
		nobles_loyalty_modifier = 0.1
		governing_capacity_modifier = -0.5
	}
}

verkal_dromak_sleeper_government = {
	icon = "mandala_system"
	allow_normal_conversion = no
	lock_level_when_selected = yes
	potential = {
		has_reform = verkal_dromak_sleeper_government
	}
	
	valid_for_nation_designer = yes
	nation_designer_cost = 60
	
	modifiers = {
		mages_influence_modifier = 0.05
		mages_loyalty_modifier = 0.1
		all_power_cost = -0.01
	}
	custom_attributes = {
		locked_government_type = yes
		heir = no
		queen = no
		rulers_can_be_generals = no
		verkal_dromak_special_election = yes
	}
}

gnomish_cogovernment_reform = { #can be activated with reveria.37, should only be done if gnomes = integrated and artificers_estate = yes.
	potential = {
		NOT = {
			has_country_modifier = gnomish_administration
		}
		OR = {
			accepted_culture = cliff_gnome
			accepted_culture = creek_gnome
			accepted_culture = imperial_gnome
		}
	}
	custom_attributes = {
		is_technocracy = yes
	}
	trigger = {
		has_estate = estate_artificers
		high_tolerance_gnomish_race_trigger = yes
		NOT = {
			has_country_modifier = gnomish_administration
		}
	}
	icon = "egalite_reform"
	allow_normal_conversion = yes
	valid_for_nation_designer = yes
	nation_designer_cost = 30
	nation_designer_trigger = {
	}
	modifiers = {
		idea_cost = -0.05
		advisor_cost = -0.1
		technology_cost = -0.1
		artificers_influence_modifier = 0.15
		artificers_loyalty_modifier = 0.1
		mages_loyalty_modifier = -0.1
		mages_influence_modifier = -0.1
		max_absolutism = -15
		same_culture_advisor_cost = 0.25
	}
	effect = {

	}

	ai = {
		factor = 100
	}
}

seincourt_reform = { 
	icon = "three_classes_reform"
	allow_normal_conversion = no
	potential = {
		tag = A90
		has_reform = seincourt_reform
	}
	legacy_equivalent = feudal_monarchy
	valid_for_nation_designer = no
	fixed_rank = 1
		modifiers = {
		governing_capacity_modifier = -0.5
		diplomatic_reputation = 2
		improve_relation_modifier = 0.25
		diplomatic_upkeep = 2
		development_cost = -0.1
		prestige_from_land = 0.75
	}
}

elikhander_autocracy_reform = {
	icon = "generic_people"
	allow_normal_conversion = no
	legacy_equivalent = despotic_monarchy
	valid_for_nation_designer = yes
	nation_designer_cost = 10
	lock_level_when_selected = yes
	potential = {
		OR = {
			has_reform = elikhander_autocracy_reform
			have_had_reform = elikhander_autocracy_reform
		}
	}
	modifiers = {
		church_loyalty_modifier = 0.1
		nobles_loyalty_modifier = 0.1
		burghers_loyalty_modifier = 0.1
		mages_loyalty_modifier = 0.1
		adventurers_loyalty_modifier = 0.1
		artificers_loyalty_modifier = 0.1
		vampires_loyalty_modifier = 0.1
		castonath_patricians_loyalty_modifier = 0.1
		cossacks_loyalty_modifier = 0.1
	}
	custom_attributes = {
		locked_government_type = yes
	}
	ai = {
		factor = 10
	}
}

#Hereditary vs Nobility
enforce_privileges_reform = {
	icon = "people_walking"
	allow_normal_conversion = yes
	potential = {
		NOT = { has_reform = dwarven_clan_reform }
		NOT = { has_reform = hobgoblin_stratocracy_reform }	#Anbennar
		is_revolutionary = no
	}
	modifiers = {
		global_manpower_modifier = 0.15
	}
	ai = {
		factor = 1
		modifier = {
			factor = 2
			NOT = { max_manpower = 12 }
		}
	}
}

quash_noble_power_reform = {
	icon = "king_2"
	allow_normal_conversion = yes
	potential = {
		NOT = { has_reform = dwarven_clan_reform }
		NOT = { has_reform = hobgoblin_stratocracy_reform }
		is_revolutionary = no
	}
	modifiers = {
		global_tax_modifier = 0.1
		nobles_influence_modifier = -0.1
		maratha_exclusive_influence_modifier = -0.1
		rajput_exclusive_influence_modifier = -0.1
	}
	ai = {
		factor = 1
		modifier = {
			factor = 1.5
			is_in_deficit = yes
		}
	}
}

enforce_trader_privileges_reform = {
	icon = "paper_money_map"
	allow_normal_conversion = yes
	potential = {
		is_reform_available = plutocratic_reform
		OR = {
			# technology_group = indian
			# technology_group = muslim
			# technology_group = chinese
			# technology_group = east_african
			
			technology_group = tech_gnomish
			technology_group = tech_bulwari
			technology_group = tech_harimari
			technology_group = tech_raheni
			technology_group = tech_halessi
			culture_group = businori
		}
	}
	trigger = {
		has_reform = plutocratic_reform
	}
	modifiers = {
		trade_range_modifier = 0.3
		trade_efficiency = 0.05
	}
	ai = {
		factor = 2
		modifier = {
			factor = 1.5
			trade_income_percentage = 0.35
		}
		modifier = {
			factor = 0.5
			NOT = {
				trade_income_percentage = 0.25
			}
		}
	}
}

bengali_reform = {
	icon = "merchant_ship"
	allow_normal_conversion = yes
	potential = {
		has_dlc = "Dharma"
		primary_culture = bengali
		religion_group = muslim
	}
	modifiers = {
		merchants = 1
		trade_efficiency = 0.1
	}
	ai = {
		factor = 5
	}
}

sufi_syncretism_reform = {
	icon = "muslim"
	allow_normal_conversion = yes
	potential = {
		has_dlc = "Dharma"
		primary_culture = bengali
		religion_group = muslim
	}
	modifiers = {
		global_missionary_strength = 0.01
		development_cost = -0.05
	}
	ai = {
		factor = 3
	}
}

poligar_reform = {
	icon = "indian_crown"
	allow_normal_conversion = yes
	potential = {
		has_dlc = "Dharma"
		technology_group = indian
		OR = {
			culture_group = dravidian
			primary_culture = oriya
			primary_culture = sinhala
		}
	}
	modifiers = {
		infantry_power = 0.1
		development_cost = -0.05
	}
	ai = {
		factor = 3
	}
}

khalsa_reform = {
	icon = "strength_of_the_khalsa"
	allow_normal_conversion = yes
	potential = {
		has_dlc = "Dharma"
		religion = sikhism
	}
	modifiers = {
		tolerance_heathen = 1
		tolerance_heretic = 1
		land_morale = 0.05
	}
	ai = {
		factor = 5
	}
}

deccani_society_reform = {
	icon = "noble_indian"
	allow_normal_conversion = yes
	potential = {
		has_dlc = "Dharma"
		is_revolutionary = no
		technology_group = indian
		religion_group = muslim
		OR = {
			culture_group = dravidian
			primary_culture = marathi
		}
	}
	modifiers = {
		free_dip_policy = 1
	}
	ai = {
		factor = 3
	}
}

# black_army_reform = {
# 	icon = "black_army_reform"
# 	allow_normal_conversion = yes
# 	potential = {
# 		tag = HUN
# 		has_country_flag = black_army_reform_flag
# 		is_revolutionary = no
# 	}
# 	modifiers = {
# 		merc_maintenance_modifier = -0.15
# 		mercenary_discipline = 0.025
# 		nobles_loyalty_modifier = -0.1
# 	}
# 	ai = {
# 		factor = 3
# 	}
# }

legion_of_honor_reform = {
	icon = "legion_of_honor_reform"
	allow_normal_conversion = yes
	potential = {
		is_revolutionary = yes
	}
	modifiers = {
		leader_cost = -0.1
		nobles_loyalty_modifier = 0.1
		maratha_exclusive_loyalty_modifier = 0.1
		rajput_exclusive_loyalty_modifier = 0.1
	}
	ai = {
		factor = 2.5
	}
}

imperial_nobility_reform = {
	icon = "imperial_nobility_reform"
	allow_normal_conversion = yes
	potential = {
		is_revolutionary = yes
	}
	modifiers = {
		advisor_cost = -0.1
		nobles_influence_modifier = -0.2
		maratha_exclusive_influence_modifier = -0.2
		rajput_exclusive_influence_modifier = -0.2
	}
	ai = {
		factor = 2.5
	}
}

#Anbennar
old_clans_reform = {
	icon = "castle"
	allow_normal_conversion = yes
	potential = {
		has_reform = dwarven_clan_reform
	}
	modifiers = {
		stability_cost_modifier = -0.15
	}
	ai = {
		factor = 10
	}
}

new_clans_reform = {
	icon = "noble_indian"
	allow_normal_conversion = yes
	potential = {
		has_reform = dwarven_clan_reform
	}
	modifiers = {
		improve_relation_modifier = 0.1
	}
	
	ai = {
		factor = 10
	}
}

magical_elite_reform = {
	icon = "indian_crown"
	allow_normal_conversion = yes
	potential = {
		has_estate = estate_mages
		NOT = { has_country_flag = banned_magic }
		NOT = { has_reform = hobgoblin_stratocracy_reform }
		NOT = {
			AND = {
				religion = bulwari_sun_cult
				NOT = { primary_culture = sun_elf }
			}
		}
	}
	modifiers = {
		prestige_decay = -0.01
		mages_loyalty_modifier = 0.1
		mages_influence_modifier = 0.05
	}
	
	ai = {
		factor = 1
		modifier = {
			factor = 0
			is_part_of_hre = no
		}
		modifier = {	#Makes em go like this in Age of Witch Kings
			factor = 1000
			capital_scope = { superregion = escann_superregion }
			NOT = { current_age = age_of_revolutions }
		}
		modifier = {
			factor = 10
			current_age = age_of_absolutism
		}
	}
}

jadd_nobility = {
	icon = "peacock_throne"
	allow_normal_conversion = yes
	lock_level_when_selected = yes
	potential = {
		OR = {
			tag = F51
			tag = F99
			AND = {
				has_reform = jadd_empire
				is_playing_custom_nation = yes
			}
		}
	}

	modifiers = {
		governing_capacity = 150 
		global_manpower_modifier = 0.1
	}

	assimilation_cultures = {
		anbennarian = {
			all_power_cost = -0.025
		}
		alenic = {
			production_efficiency = 0.1
		}
		businori = {
			ship_durability = 0.05
		}
		escanni = {
			governing_capacity_modifier = 0.1
		}
		dostanorian_g = {
			fort_maintenance_modifier = -0.1
		}
		divenori = {
			galley_power = 0.1
		}
		lencori = {
			cavalry_power = 0.1
		}
		halfling = {
			trade_efficiency = 0.1
		}
		gnomish = {
			technology_cost = -0.05
		}
		gerudian = {
			naval_forcelimit_modifier = 0.1
		}
		giantkind = {
			build_cost = -0.1
		}
		elven = {
			discipline = 0.05
		}
		dwarven = {
			artillery_power = 0.1
		}
		kobold = {
			hostile_attrition = 1
		}
		gnollish = {
			unjustified_demands = -0.1
		}
		orcish = {
			shock_damage = 0.1
		}
		goblin = {
			land_attrition = -0.2
		}
		bulwari = {
			core_creation = -0.1
		}
		harpy = {
			manpower_recovery_speed = 0.2
		}
		upper_raheni = {
			global_regiment_cost = -0.1
		}
		middle_raheni = {
			idea_cost = -0.05
		}
		south_raheni = {
			siege_ability = 0.1
		}
		hobgoblin = {
			drill_gain_modifier = 1
		}
		harimari = {
			administrative_efficiency = 0.05
		}
		centaur = {
			cavalry_shock = 0.25
		}
		ogre = {
			shock_damage_received = -0.1
		}
		triunic = {
			improve_relation_modifier = 0.1
		}
		bom = {
			garrison_size = 0.25
		}
		kai = {
			movement_speed = 0.1
		}
		kelino = {
			global_trade_power = 0.1
		}
		yanglam = {
			yearly_absolutism = 1
		}
		yan = {
			infantry_power = 0.1
		}
		khantaar = {
			cavalry_cost = -0.2
		}
		odheongun = {
			infantry_fire = 0.2
		}
		besholgi = {
			# trade_range_modifier = 0.25
			global_foreign_trade_power = 0.05
		}
	}
}

harimari_upper_caste = {
	icon = "noble_indian"
	allow_normal_conversion = yes
	potential = {
		OR = {
			culture_group = harimari
		}
	}
	modifiers = {
		idea_cost = -0.05
		core_creation = -0.05
	}
}

vanrahar_warrior_caste = {
	icon = "siddhi_recruitment"
	allow_normal_conversion = yes
	lock_level_when_selected = yes
	potential = {
		culture_group = harimari
		OR = {
			has_reform = vanrahar_warrior_caste
			have_had_reform = vanrahar_warrior_caste
		}
	}
	modifiers = {
		land_forcelimit_modifier = 0.25
		global_manpower_modifier = 0.1
	}
}

ghankedhen_families = {
	icon = "noble_muslim"
	allow_normal_conversion = yes
	lock_level_when_selected = yes
	potential = {
		primary_culture = ghankedhen
		OR = {
			has_reform = ghankedhen_families
			have_had_reform = ghankedhen_families
		}
	}
	modifiers = {
		same_culture_advisor_cost = -0.25
		advisor_pool = 2
		manpower_recovery_speed = 0.2
		num_accepted_cultures = -2
		#Reduce administrative capacity
	}
}

gerudia_unbound_commoners =  {
	icon = "peasants"
	allow_normal_conversion = yes
	lock_level_when_selected = no
	potential = {
		culture_group = gerudian
	}
	modifiers = {
		global_unrest = -2
		nobles_influence_modifier = -0.1
		burghers_influence_modifier = 0.1
		burghers_loyalty_modifier = 0.05
	}
}

hobgoblin_officer_authority = {
	icon = "black_army_reform"
	allow_normal_conversion = yes
	potential = {
		has_reform = hobgoblin_stratocracy_reform
	}
	modifiers = {
		army_tradition = 0.5
	}
	ai = {
		factor = 2.5
	}
}
adenica_chivalric_oaths = {
	icon = "holy_state_reform"
	allow_normal_conversion = yes
	lock_level_when_selected = yes
	potential = {
		has_reform = adenica_chivalric_oaths
	}
	modifiers = {
		spy_offence = -0.15
		same_culture_advisor_cost = -0.2
		yearly_corruption = -0.05
	}
}
castanor_succession_war_reward_edhar_castan = {
	icon = "legislative_assembly_reform"
	allow_normal_conversion = yes
	potential = {
		has_reform = castanor_succession_war_reward_edhar_castan
	}
	
	modifiers = {
		max_absolutism = 10
		yearly_absolutism = 0.5
		culture_conversion_cost = -0.05
		castonath_patricians_loyalty_modifier = 0.1
		nobles_loyalty_modifier = -0.05
		church_loyalty_modifier = -0.05
		mages_loyalty_modifier = -0.05
		artificers_loyalty_modifier = -0.05
	}

	ai = {
		factor = 96
	}
}
castanor_succession_war_reward_original_castan = {
	icon = "legislative_assembly_reform"
	allow_normal_conversion = yes
	potential = {
		has_reform = castanor_succession_war_reward_original_castan
	}
	
	modifiers = {
		liberty_desire_from_subject_development = -0.2
		global_unrest = -2
		advisor_cost = -0.1
		castonath_patricians_influence_modifier = -0.2
		castonath_patricians_loyalty_modifier = -0.1
	}
	
	custom_attributes = { }
	
	ai = {
		factor = 96
	}
}

verkal_dromak_sleeper_monarch = {
	icon = "holy_state_reform"
	allow_normal_conversion = yes
	lock_level_when_selected = yes
	potential = {
		has_reform = verkal_dromak_sleeper_monarch
	}
	modifiers = {
		mages_influence_modifier = 0.05
		mages_loyalty_modifier = 0.1
	}
}

#Bureaucracy:

centralize_reform = {
	icon = "paper_with_seal_3"
	allow_normal_conversion = yes
	potential = {
		OR = {
			is_revolutionary = no
			NOT = { has_dlc = "Emperor" }
		}
	}
	modifiers = {
		global_autonomy = -0.05
	}
}

decentralize_reform = {
	icon = "map"
	allow_normal_conversion = yes
	potential = {
		OR = {
			is_revolutionary = no
			NOT = { has_dlc = "Emperor" }
		}
	}
	modifiers = {
		num_accepted_cultures = 2
	}
	ai = {
		factor = 1
		modifier = {
			factor = 0.25
			NOT = {
				any_owned_province = {
					has_owner_accepted_culture = no
					has_owner_culture = no
				}
			}
		}
	}
}

sidhi_recruitment = {
	icon = "siddhi_recruitment"
	allow_normal_conversion = yes
	potential = {
		has_dlc = "Dharma"
		technology_group = indian
		religion_group = muslim
		OR = {
			culture_group = dravidian
			primary_culture = marathi
		}
	}
	modifiers = {
		fort_maintenance_modifier = -0.1
		governing_capacity = 100
	}
	ai = {
		factor = 2
	}
}

# mansabdari_reform = {
# 	icon = "noble_muslim"
# 	allow_normal_conversion = yes
# 	potential = {
# 		tag = MUG
# 		NOT = { map_setup = map_setup_random }
# 		has_dlc = "Dharma"
# 	}
# 	modifiers = {
# 		army_tradition_decay = -0.003
# 		governing_capacity = 150
# 	}
# 	ai = {
# 		factor = 10
# 	}
# }

# examination_system_reform = {
# 	icon = "asian_scripture"
# 	allow_normal_conversion = yes
# 	potential = {
# 		OR = {
# 			religion = confucianism
# 			primary_culture = vietnamese
# 		}
# 	}
# 	trigger = {
# 		OR = {
# 			has_reform = confucian_bureaucracy
# 			has_reform = celestial_empire
# 		}
# 	}
# 	modifiers = {
# 		advisor_pool = 1
# 		nobles_influence_modifier = -0.1
# 	}
# 	ai = {
# 		factor = 10
# 	}
# }

# corvee_reform = {
# 	icon = "asian_scripture"
# 	allow_normal_conversion = yes
# 	potential = {
# 		OR = {
# 			culture_group = thai_group
# 			culture_group = burman
# 			primary_culture = khmer
# 		}
# 	}
# 	modifiers = {
# 		global_manpower_modifier = 0.1
# 		build_cost = -0.1
# 	}
# 	effect = {
# 		custom_tooltip = manpower_sailors_on_build_tt
# 	}
# 	ai = {
# 		factor = 10
# 	}
# }


#Anbennar

restructured_dhenijansari_court_reform = {
	icon = "general_eastern_administrative"
	allow_normal_conversion = yes
	lock_level_when_selected = yes
	potential = {
		OR = {
			has_reform = restructured_dhenijansari_court_reform
			have_had_reform = restructured_dhenijansari_court_reform
		}
	}
	modifiers = {
		governing_capacity = 100 
		reduced_liberty_desire_on_same_continent = 10
		global_autonomy = -0.02
	}
}

jaherian_administration = {
	icon = "noble_muslim"
	allow_normal_conversion = yes
	potential = {
		OR = {
			has_reform = jaherian_administration
			have_had_reform = jaherian_administration
		}
	}
	modifiers = {
		governing_capacity = 100
		years_of_nationalism = -5
	}
}

jaddari_mobile_centralization = {
	icon = "noble_muslim"
	allow_normal_conversion = yes
	potential = {
		OR = {
			has_reform = jaddari_mobile_centralization
			have_had_reform = jaddari_mobile_centralization
		}
	}
	modifiers = {
		governing_capacity = 100
		global_autonomy = -0.02
	}
}
castanor_the_provincial_system = {
	icon = "map_2"
	allow_normal_conversion = yes
	potential = {
		OR = {
			has_reform = castanor_the_provincial_system
			have_had_reform = castanor_the_provincial_system
		}
	}
	modifiers = {
		global_autonomy = -0.02
		global_tax_modifier = 1
		global_unrest = -1
		governing_capacity = -100
	}
	ai = {
		factor = 5
	}
}

#Growth of Administration

clergy_in_administration_reform = {
	icon = "religious_leader"
	allow_normal_conversion = yes
	potential = {
		NOT = { has_reform = hobgoblin_stratocracy_reform }
		OR = {
			is_revolutionary = no
			NOT = { has_dlc = "Emperor" }
		}
	}
	modifiers = {
		free_adm_policy = 1
		
		brahmins_hindu_influence_modifier = 0.1
		brahmins_hindu_loyalty_modifier = 0.05

		church_influence_modifier = 0.1
		church_loyalty_modifier = 0.05
		mages_loyalty_modifier = 0.05
		mages_influence_modifier = 0.1
	}
	ai = {
		factor = 1
		modifier = {
			factor = 0.1
			OR = {
				AND = {
					religion = hinduism
					estate_influence = {
						estate = estate_brahmins
						influence = 90
					}
				}
				estate_influence = {
					estate = estate_church
					influence = 90
				}
			}
		}
	}
}

of_noble_bearing_reform = {
	icon = "nobleman"
	allow_normal_conversion = yes
	potential = {
		NOT = { has_reform = hobgoblin_stratocracy_reform }
		OR = {
			is_revolutionary = no
			NOT = { has_dlc = "Emperor" }
		}
		NOT = {
			AND = {
				has_estate = estate_maratha
				technology_group = indian
				NOT = { has_estate = estate_nobles }
			}
		}
		NOT = {
			AND = {
				has_estate = estate_rajput
				technology_group = indian
				NOT = { has_estate = estate_nobles }
			}
		}
	}
	modifiers = {
		leader_cost = -0.1
		nobles_influence_modifier = 0.1
		maratha_exclusive_influence_modifier = 0.1
		rajput_exclusive_influence_modifier = 0.1
		nobles_loyalty_modifier = 0.05
		maratha_exclusive_loyalty_modifier = 0.05
		rajput_exclusive_loyalty_modifier = 0.05
	}
	ai = {
		factor = 1
		modifier = {
			factor = 0.1
			OR = {
				AND = {
					NOT = { has_estate = estate_nobles }
					OR = {
						estate_influence = {
							estate = estate_rajput
							influence = 90
						}
						estate_influence = {
							estate = estate_maratha
							influence = 90
						}
					}
				}
				estate_influence = {
					estate = estate_nobles
					influence = 90
				}
			}
		}
	}
}

meritocratic_focus_reform = {
	icon = "merchant"
	allow_normal_conversion = yes
	potential = {
		NOT = { has_reform = hobgoblin_stratocracy_reform }
		OR = {
			is_revolutionary = no
			NOT = { has_dlc = "Emperor" }
		}
	}
	modifiers = {
		advisor_cost = -0.1
		maratha_muslim_influence_modifier = 0.1
		rajput_muslim_influence_modifier = 0.1
		burghers_influence_modifier = 0.1
		burghers_loyalty_modifier = 0.05
		vaisyas_non_muslim_influence_modifier = 0.1
		adventurers_loyalty_modifier = 0.05
		adventurers_influence_modifier = 0.1

		# ANBENNAR
		castonath_patricians_influence_modifier = 0.1
		castonath_patricians_loyalty_modifier = 0.05
	}
	ai = {
		factor = 1
		modifier = {
			factor = 0.1
			OR = {
				AND = {
					religion_group = muslim
					OR = {
						estate_influence = {
							estate = estate_rajput
							influence = 90
						}
						estate_influence = {
							estate = estate_maratha
							influence = 90
						}
					}
				}
				AND = {
					NOT = { religion_group = muslim }
					estate_influence = {
						estate = estate_vaisyas
						influence = 90
					}
				}
				estate_influence = {
					estate = estate_burghers
					influence = 90
				}
			}
		}
	}
}

dakhni_culture_reform = {
	icon = "indian_crown"
	allow_normal_conversion = yes
	potential = {
		has_dlc = "Dharma"
		technology_group = indian
		religion_group = muslim
		OR = {
			culture_group = dravidian
			primary_culture = marathi
		}
	}
	modifiers = {
		state_maintenance_modifier = -0.2
	}
	ai = {
		factor = 2
	}
}

# zabt_reform = {
# 	icon = "general_eastern_administrative"
# 	allow_normal_conversion = yes
# 	potential = {
# 		has_dlc = "Dharma"
# 		tag = MUG
# 	}
# 	modifiers = {
# 		governing_capacity = 150
# 	}
# 	ai = {
# 		factor = 5
# 	}
# }

#Anbennar

hobgoblin_administration_of_the_wolf = {
	icon = "administration_of_the_wolf"
	allow_normal_conversion = yes
	potential = {
		has_reform = hobgoblin_stratocracy_reform
	}
	modifiers = {
		governing_capacity = 100
		hob_wolf_command_influence = 0.1
	}
	ai = {
		factor = 5
	}
}

hobgoblin_administration_of_the_boar = {
	icon = "administration_of_the_boar"
	allow_normal_conversion = yes
	potential = {
		has_reform = hobgoblin_stratocracy_reform
	}
	modifiers = {
		prestige = 1
		hob_boar_command_influence = 0.1
	}
	ai = {
		factor = 5
	}
}

hobgoblin_administration_of_the_lion = {
	icon = "administration_of_the_lion"
	allow_normal_conversion = yes
	potential = {
		has_reform = hobgoblin_stratocracy_reform
	}
	modifiers = {
		global_unrest = -1
		hob_lion_command_influence = 0.1
	}
	ai = {
		factor = 5
	}
}

hobgoblin_flexible_administration = {
	icon = "strength_of_the_khalsa"
	allow_normal_conversion = yes
	potential = {
		has_reform = hobgoblin_stratocracy_reform
	}
	modifiers = {
		max_absolutism = 5
	}
	ai = {
		factor = 5
	}
}

orders_of_surael_reform = {
	icon = "monks"
	allow_normal_conversion = yes
	potential = {
		religion = the_jadd
		has_dlc = "Golden Century"
	}
	modifiers = {
		establish_order_cost = -0.5
		tolerance_own = 1

		church_influence_modifier = 0.1
		church_loyalty_modifier = 0.05
	}
	ai = {
		factor = 1
		modifier = {
			factor = 0.1
			estate_influence = {
				estate = estate_church
				influence = 90
			}
		}
	}
}

consolidated_raj_reform = {
	icon = "noble_muslim"
	allow_normal_conversion = yes
	lock_level_when_selected = yes
	potential = {
		has_reform = raja_reform
		has_reform = consolidated_raj_reform
	}
	modifiers = {
		governing_capacity_modifier = 0.5
		
		raj_ministries_influence_modifier = 0.1
		raj_ministries_loyalty_modifier = 0.05
		#This should also increase raj influence in subjects
	}
}

castanor_permanent_patrician_council = {
	icon = "black_market_consortium"
	allow_normal_conversion = yes
	potential = {
		OR = {
			has_reform = castanor_permanent_patrician_council
			have_had_reform = castanor_permanent_patrician_council
		}
	}
	modifiers = {
		advisor_cost = -0.1
		nobles_influence_modifier = -0.1
		nobles_loyalty_modifier = -0.05
		castonath_patricians_influence_modifier = 0.05
		castonath_patricians_loyalty_modifier = 0.05
		global_trade_power = 0.1
	}
	custom_attributes = {
		patrician_council_mt_mechanic = yes
	}
	ai = {
		factor = 5
	}
}

#deliberative_assembly

# parliamentary_reform defined in common file

royal_decree_reform = {
	icon = "king"
	allow_normal_conversion = yes
	potential = {
		NOT = { has_reform = hobgoblin_stratocracy_reform }
		is_revolutionary = no
	}
	modifiers = {
		max_absolutism = 5
	}
	ai = {
		factor = 1
	}
}

aristocratic_court_reform = {
	icon = "soldiers_2"
	allow_normal_conversion = yes
	potential = {
		NOT = { has_reform = hobgoblin_stratocracy_reform }
	}
	modifiers = {
		army_tradition_decay = -0.003
	}
	ai = {
		factor = 1
	}
}

states_general_reform = {
	icon = "states_general"
	allow_normal_conversion = yes
	potential = {
		is_revolutionary = no
		NOT = { has_reform = oak_monarchy_reform has_reform = hobgoblin_stratocracy_reform has_reform = original_castanor_trials_reform has_reform = dynastic_castanor_trials_reform }
		NOT = { tag = Z43 }
	}
	trigger = {
		NOT = { is_lesser_in_union = yes }
		is_emperor = no
		custom_trigger_tooltip = {
			tooltip = usurp_emperor_states_general_tt
			NOT = {
				has_country_flag = escanni_wars_usurp_emperorship
				is_in_war = {
					attacker_leader = ROOT
					casus_belli = cb_usurp_emperorship
				}
			}
		}
		NOT = { has_reform = corvurian_midnight_reform }
	}

	modifiers = {
		stability_cost_modifier = -0.1
	}

	ai = {
		factor = 0 # AI should never pick this
	}

	removed_effect = {
		country_event = { id = dutch_republic.33 }
	}

	conditional = {
		allow = { has_dlc = "Res Publica" }
		queen = no
		heir = no
		duration = 4
		has_term_election = yes
		states_general_mechanic = {
			statists = {
				diplomatic_reputation = 1
				global_unrest = -1
				legitimacy = -0.5
			}

			monarchists = {
				prestige = 0.5
				manpower_recovery_speed = 0.1
				legitimacy = 0.5
			}
		}
	}
}

general_estates_reform = {
	icon = "paper_with_seal"
	allow_normal_conversion = yes
	potential = {
		is_revolutionary = no
		NOT = { has_reform = hobgoblin_stratocracy_reform }
	}
	modifiers = {
		production_efficiency = 0.1
	}
	ai = {
		factor = 1
		modifier = {
			factor = 1.2
			production_income_percentage = 0.25
		}
	}
}

legislative_sejm = {
	icon = "legislative_sejm_reform"
	allow_normal_conversion = yes
	
	potential = {
		has_reform = elective_monarchy
		has_dlc = "Res Publica"
	}
	
	trigger = {
		has_reform = elective_monarchy
	}
	
	modifiers = {
		local_heir_adm = 1
		local_heir_dip = 1
		local_heir_mil = 1
	}
	
	ai = {
		factor = 1
	}
}

integrated_sejmiks = {
	icon = "integrated_sejmiks_reform"
	allow_normal_conversion = yes
	
	potential = {
		has_reform = elective_monarchy
		has_dlc = "Res Publica"
	}
	
	trigger = {
		has_reform = elective_monarchy
	}
	
	modifiers = {
		years_of_nationalism = -5
	}
	
	ai = {
		factor = 1
	}
}

imperial_decree_reform = {
	icon = "king"
	allow_normal_conversion = yes
	potential = {
		is_revolutionary = yes
	}
	modifiers = {
		max_revolutionary_zeal = 20
	}
	ai = {
		factor = 2.5
	}
}

#Anbennar

hobgoblin_absolute_discipline = {
	icon = "emperor_of_the_revolution_reform"
	allow_normal_conversion = yes
	potential = {
		has_reform = hobgoblin_stratocracy_reform
	}
	modifiers = {
		leader_land_shock = 1
		max_absolutism = 10
	}
	ai = {
		factor = 5
	}
}

hobgoblin_assembly_of_commands = {
	icon = "soldiers_4"
	allow_normal_conversion = yes
	potential = {
		has_reform = hobgoblin_stratocracy_reform
	}
	modifiers = {
		monarch_admin_power = 1
	}
	conditional = {
		allow = { has_dlc = "Common Sense" }
		has_parliament = yes
		custom_attributes = {
			blocked_call_diet = yes
		}
	}
	ai = {
		factor = 5
	}
}

jadd_exemplary = {
	icon = "generic_people"
	allow_normal_conversion = yes
	potential = {
		OR = {
			has_reform = jadd_exemplary
			have_had_reform = jadd_exemplary
		}
	}
	modifiers = {
		governing_capacity = 150
	}
	conditional = {
		allow = { has_dlc = "Common Sense" }
		has_parliament = yes
		custom_attributes = {
			blocked_call_diet = yes
		}
	}
}

adenica_mortal_court = {
	icon = "black_market_consortium"
	allow_normal_conversion = yes
	potential = {
		OR = {
			has_reform = adenica_mortal_court
			have_had_reform = adenica_mortal_court
		}
	}
	modifiers = {
		yearly_corruption = -0.05
		possible_adm_policy = 1
		free_adm_policy = 1
		max_absolutism = -5
	}
	ai = {
		factor = 5
	}
}

castanor_dominion_administration = {
	icon = "judge"
	allow_normal_conversion = yes
	potential = {
		OR = {
			has_reform = castanor_dominion_administration
			have_had_reform = castanor_dominion_administration
		}
	}
	modifiers = {
		reduced_liberty_desire_on_same_continent = 10
		diplomatic_annexation_cost = -0.2
		nobles_loyalty_modifier = -0.05
		nobles_influence_modifier = -0.05
	}
	custom_attributes = {
		dominion_cheaper_integration = yes
	}
	ai = {
		factor = 69
	}
}

#absolute_rule_vs_constitutional

letat_cest_moi_reform = {
	icon = "queen"
	allow_normal_conversion = yes
	modifiers = {
		governing_capacity = 250
	}
	ai = {
		factor = 1.5
		# modifier = {
		# 	factor = 2
		# 	tag = FRA
		# }
	}
}

regional_representation_reform = {
	icon = "assembly_hall"
	allow_normal_conversion = yes
	modifiers = {
		min_autonomy_in_territories = -0.10
	}
}

consulate_reform = {
	icon = "revolutionary_republic"
	allow_normal_conversion = yes
	potential = {
		is_revolutionary = yes
	}
	modifiers = {
		global_autonomy = -0.05
		governing_capacity = 150
	}
	ai = {
		factor = 2.5
	}
}

#separation_of_power

political_absolutism_reform = {
	icon = "judge"
	allow_normal_conversion = yes
	potential = {
		is_revolutionary = no
	}
	modifiers = {
		max_absolutism = 5
		yearly_absolutism = 0.5
	}
	ai = {
		factor = 1.5
		# modifier = {
		# 	factor = 2
		# 	tag = FRA
		# }
	}
}

legislative_houses_reform = {
	icon = "parliament_hall"
	allow_normal_conversion = yes
	potential = {
		is_revolutionary = no
	}
	modifiers = {
		possible_adm_policy = 1
	}
}

become_a_republic_reform = {
	icon = "parliament_highlighted"
	allow_normal_conversion = yes
	potential = {
		is_revolutionary = no
	}
	trigger = {
		NOT = { has_government_attribute_short_desc = locked_government_type }
		is_emperor = no
		NOT = { is_lesser_in_union = yes }
	}
	effect = {
		set_country_flag = populists_in_government
		lose_reforms = 3
		change_government = republic
	}
	ai = {
		factor = 0
	}
}

install_theocratic_government_reform = {
	icon = "pope_highlighted"
	allow_normal_conversion = yes
	potential = {
		is_revolutionary = no
	}
	trigger = {
		NOT = { has_government_attribute_short_desc = locked_government_type }
		is_emperor = no
		NOT = { is_lesser_in_union = yes }
	}
	effect = {
		set_country_flag = populists_in_government
		lose_reforms = 4
		change_government = theocracy
	}
	ai = {
		factor = 0
	}
}

emperor_of_the_revolution_reform = {
	icon = "emperor_of_the_revolution_reform"
	allow_normal_conversion = yes
	potential = {
		has_dlc = "Emperor"
		is_revolutionary = yes
	}
	modifiers = {
		yearly_revolutionary_zeal = 1.5
	}
	ai = {
		factor = 2.5
	}
}

enlightened_monarchy_reform = {
	icon = "enlightened_monarchy_reform"
	allow_normal_conversion = yes
	potential = {
		is_revolutionary = yes
	}
	modifiers = {
		global_unrest = -2
		num_accepted_cultures = 2
	}
	ai = {
		factor = 2.5
	}
}

become_rev_republic_reform = {
	icon = "become_rev_republic_reform"
	allow_normal_conversion = yes

	potential = { 
		is_revolutionary = yes
	}
	
	trigger = {
		has_reform = revolutionary_empire_reform
	}

	modifiers = {
	}
	effect = {
		if = {
			limit = { has_government_attribute = states_general_mechanic }
			set_country_flag = had_states_general_mechanic
		}
		set_country_flag = populists_in_government
		lose_reforms = 3
		change_government = republic
		add_government_reform = revolutionary_republic_reform
		if = {
			limit = { has_country_flag = had_states_general_mechanic }
			country_event = { id = dutch_republic.33 }
			clr_country_flag = had_states_general_mechanic
		}
	}
	ai = {
		factor = 0
	}
}

eclipse_concordat_reform = {
	icon = "eclipse_concordat"
	allow_normal_conversion = yes
	potential = {
		has_country_flag = rianvisa_calasandur_rule_2
	}
	modifiers = {
		max_absolutism = 10
		yearly_absolutism = 0.5
		monarch_admin_power = 1
		monarch_diplomatic_power = 1
		monarch_military_power = 1
	}
	ai = {
		factor = 100
	}
}

council_of_the_ancients_reform = {
	icon = "council_of_the_ancients"
	allow_normal_conversion = yes
	potential = {
		has_country_flag = council_of_the_ancients_reform_flag
	}
	
	modifiers = {
		same_culture_advisor_cost = -0.2
	}
	
	custom_attributes = {
		better_long_lived = yes
	}
	
	ai = {
		factor = 100
	}
}

the_empress_rule_reform = {
	icon = "eclipse_concordat"
	allow_normal_conversion = yes
	potential = {
		has_country_flag = aelnar_the_empress_rule
	}
	
	trigger = {
		custom_trigger_tooltip = {
			tooltip = elissa_is_alive
			has_ruler_flag = elissa_is_alive
		}
	}
	
	modifiers = {
		promote_culture_cost = 3
		culture_conversion_cost = -0.33
		max_absolutism = 35
		monthly_splendor = 1
	}
	
	custom_attributes = {
		elissa_harem = yes
	}
	
	ai = {
		factor = 100
	}
}

#northen_custodians
northen_custodians = {
	icon = "celestial_empire"
	allow_normal_conversion = no
	lock_level_when_selected = yes
	potential = {
	has_reform = northen_custodians
	primary_culture = fjord_troll 
	}
	trigger = {
	primary_culture = fjord_troll
		}
	modifiers = {
		build_cost  = -0.1
		fort_maintenance_modifier = -0.2
		governing_capacity = 100
		garrison_size = 0.25
		global_institution_spread = -0.1
		province_warscore_cost = -0.1
		land_forcelimit_modifier = 0.10
	}
}

agdirvoeda_empire = {
	icon = "celestial_empire"
	allow_normal_conversion = no
	lock_level_when_selected = yes
	potential = {
	has_reform = agdirvoeda_empire
	primary_culture = fjord_troll 
	}
	trigger = {
	primary_culture = fjord_troll
		}
	modifiers = {
		build_cost  = -0.15
		fort_maintenance_modifier = -0.2
		global_regiment_cost = -0.10
		garrison_size = 0.50
		governing_capacity = 100
		governing_capacity_modifier = 0.20
		global_institution_spread = -0.1
		province_warscore_cost = -0.15
		land_forcelimit_modifier = 0.20
		max_absolutism = 10
	}
}

the_ordning = {
	icon = "parliament_highlighted"
	allow_normal_conversion = no
	lock_level_when_selected = yes
	potential = {
	has_reform = the_ordning
	primary_culture = fjord_troll 
	}
	trigger = {
	primary_culture = fjord_troll
		}
	modifiers = {
		global_autonomy = -0.025
		global_tax_modifier = 0.1
		num_accepted_cultures = 2
	}
}