
anbenncost_1 = {
	slot = 1
	generic = no
	ai = yes
	has_country_shield = yes
	potential = {
		tag = A38
	}
	
	anbenncost_mobilise_watch = {
		icon = mission_build_up_to_force_limit
		required_missions = {
			anbenncost_day_in_city
		}
		position = 2
		trigger = {
			army_size_percentage = 1
		}
		effect = {
			add_country_modifier = {
				name = anbenncost_mobilise_the_watch
				duration = 3650
			}
		}
	}
	
	anbenncost_train_watch = {
		icon = mission_italian_condottiere
		required_missions = {
			anbenncost_mobilise_watch
		}
		position = 5
		trigger = {
			mil_power = 50
		}
		effect = {
			add_mil_power = -50
			add_country_modifier = {
				name = anbenncost_trained_watch
				duration = 3650
			}
		}
	}
	
	anbenncost_advance_on_temple = {
		icon = mission_european_church
		required_missions = {
			anbenncost_prepare_for_expansion
		}
		position = 7
		provinces_to_highlight = {
			OR = {
				province_id = 4
				province_id = 9
			}
		}
		trigger = {
			4 = {
				owned_by = ROOT
			}
			9 = {
				owned_by = ROOT
			}
		}
		effect = {
			4 = {
				change_trade_goods = gems
			}
			52 = {
				if = {
					limit = {
						NOT = { is_core = ROOT }
						NOT = { is_permanent_claim = ROOT }
					}
					add_permanent_claim = ROOT
				}
			}
		}
	}
	
	anbenncost_offer_for_munas = {
		icon = mission_high_income
		required_missions = {
			anbenncost_advance_on_temple
		}
		position = 9
		trigger = {
			52 = {
				owned_by = A31
			}
			treasury = 600
		}
		effect = {
			A31 = {
				country_event = {
					id = flavor_anbenncost.25
					days = 60
					random = 30
				}
			}
		}
	}
}

anbenncost_2 = {
	slot = 2
	generic = no
	ai = yes
	has_country_shield = yes
	potential = {
		tag = A38
	}
	
	anbenncost_trade_fleet = {
		icon = mission_dominate_home_trade_node
		required_missions = {
			anbenncost_day_in_city
		}
		position = 2
		trigger = {
			num_of_light_ship = 8
		}
		effect = {
			add_country_modifier = {
				name = anbenncost_trade_fleet_modifier
				duration = 7300
			}
		}
	}
	
	anbenncost_war_fleet = {
		icon = mission_sea_battles
		required_missions = {
			anbenncost_trade_fleet
		}
		position = 4
		trigger = {
			num_of_galley = 8
		}
		effect = {
			add_country_modifier = {
				name = anbenncost_war_fleet_modifier
				duration = 3650
			}
		}
	}
	
	anbenncost_flagship = {
		icon = mission_establish_high_seas_navy
		required_missions = {
			anbenncost_war_fleet
		}
		position = 5
		trigger = {
			num_of_heavy_ship = 1
		}
		effect = {
			add_prestige = 15
		}
	}
	
	anbenncost_prepare_for_expansion = {
		icon = mission_unite_home_region
		required_missions = {
			anbenncost_flagship
			anbenncost_train_watch
		}
		position = 6
		trigger = {
			diplomat = 1
		}
		effect = {
			west_damesear_area = {
				limit = {
					NOT = { is_core = ROOT }
					NOT = { is_permanent_claim = ROOT }
				}
				add_permanent_claim = ROOT
			}
			4 = {
				if = {
					limit = {
						NOT = { is_core = ROOT }
						NOT = { is_permanent_claim = ROOT }
					}
					add_permanent_claim = ROOT
				}
			}
			9 = {
				if = {
					limit = {
						NOT = { is_core = ROOT }
						NOT = { is_permanent_claim = ROOT }
					}
					add_permanent_claim = ROOT
				}
			}
		}
	}
	
	anbenncost_integrate_mages = {
		icon = mission_buddhist_monk_praying
		required_missions = {
			anbenncost_prepare_for_expansion
		}
		provinces_to_highlight = {
			OR = {
				province_id = 6
				province_id = 3
				province_id = 168
			}
		}
		position = 7
		trigger = {
			6 = {
				owned_by = ROOT
			}
			3 = {
				owned_by = ROOT
			}
			168 = {
				owned_by = ROOT
			}
		}
		effect = {
			5 = {
				if = {
					limit = {
						NOT = { is_core = ROOT }
						NOT = { is_permanent_claim = ROOT }
					}
					add_permanent_claim = ROOT
				}
			}
			2 = {
				if = {
					limit = {
						NOT = { is_core = ROOT }
						NOT = { is_permanent_claim = ROOT }
					}
					add_permanent_claim = ROOT
				}
			}
		}
	}
	
	anbenncost_unite_damesear = {
		icon = mission_unite_home_region
		required_missions = {
			anbenncost_integrate_mages
			anbenncost_advance_on_temple
		}
		provinces_to_highlight = {
			OR = {
				province_id = 6
				province_id = 3
				province_id = 168
				province_id = 4
				province_id = 9
				province_id = 5
				province_id = 2
				province_id = 8
			}
		}
		position = 8
		trigger = {
			east_damesear_area = {
				type = all
				owned_by = ROOT
			}
			8 = {
				owned_by = ROOT
			}
			6 = {
				owned_by = ROOT
			}
			3 = {
				owned_by = ROOT
			}
			168 = {
				owned_by = ROOT
			}
		}
		effect = {
			add_adm_power = 75
			add_dip_power = 75
			add_mil_power = 75
		}
	}
	
	anbenncost_fortify_damesear = {
		icon = mission_eastern_european_city
		required_missions = {
			anbenncost_unite_damesear
		}
		position = 9
		trigger = {
			168 = {
				fort_level = 2
				owned_by = ROOT
			}
			2 = {
				fort_level = 2
				owned_by = ROOT
			}
			mil_power = 100
		}
		effect = {
			add_mil_power = -100
			168 = {
				add_province_modifier = {
					name = damesear_fortifications
					duration = 36500
				}
			}
			2 = {
				add_province_modifier = {
					name = damesear_fortifications
					duration = 36500
				}
			}
		}
	}
}

anbenncost_3 = {
	slot = 3
	generic = no
	ai = yes
	has_country_shield = yes
	potential = {
		tag = A38
	}
	
	anbenncost_day_in_city = {
		icon = mission_hanseatic_city
		required_missions = { }
		position = 1
		trigger = { }
		effect = {
			country_event = {
				id = flavor_anbenncost.21
			}
		}
	}
	
	anbenncost_renovate_temple = {
		icon = mission_european_church
		required_missions = {
			anbenncost_a_new_anbenncost
		}
		position = 3
		trigger = {
			8 = {
				owned_by = ROOT
				has_tax_building_trigger = yes
			}
			adm_power = 100
		}
		effect = {
			add_adm_power = -100
			8 = {
				add_permanent_province_modifier = {
					name = anbenncost_renovated_temple
					duration = -1
				}
			}
		}
	}
	
	anbenncost_expand_forgeway = {
		icon = mission_have_manufactories
		required_missions = {
			anbenncost_a_modern_anbenncost
		}
		position = 5
		trigger = {
			8 = {
				owned_by = ROOT
				has_production_building_trigger = yes
			}
			adm_power = 100
		}
		effect = {
			add_adm_power = -100
			8 = {
				add_permanent_province_modifier = {
					name = anbenncost_forgeway
					duration = -1
				}
			}
		}
	}
	
	anbenncost_imperial_patronage = {
		icon = mission_empire
		required_missions = {
			anbenncost_prepare_for_expansion
		}
		position = 7
		trigger = {
			emperor = {
				has_opinion = {
					who = ROOT
					value = 100
				}
			}
		}
		effect = {
			add_country_modifier = {
				name = anbenncost_imperial_patronage_modifier
				duration = 7300
			}
		}
	}
	
	anbenncost_expand_city_limits = {
		icon = mission_colonial
		required_missions = {
			anbenncost_imperial_patronage
		}
		position = 8
		trigger = {
			num_of_cities = 2
		}
		effect = {
			add_country_modifier = {
				name = anbenncost_expand_city_limits_modifier
				duration = 3650
			}
		}
	}
	
	anbenncost_settle_countryside = {
		icon = mission_rb_import_potatoes
		required_missions = {
			anbenncost_expand_city_limits
			anbenncost_unite_damesear
		}
		position = 9
		trigger = {
			treasury = 300
			east_damesear_area = {
				type = all
				owned_by = ROOT
			}
			8 = {
				owned_by = ROOT
			}
			6 = {
				owned_by = ROOT
			}
			3 = {
				owned_by = ROOT
			}
			168 = {
				owned_by = ROOT
			}
		}
		effect = {
			add_treasury = -300
			4 = {
				add_base_tax = 2
				add_base_production = 2
				add_base_manpower = 2
			}
			2 = {
				add_base_tax = 2
				add_base_production = 2
				add_base_manpower = 2
			}
			5 = {
				add_base_tax = 2
				add_base_production = 2
				add_base_manpower = 2
			}
			3 = {
				add_base_tax = 2
				add_base_production = 2
				add_base_manpower = 2
			}
			6 = {
				add_base_tax = 2
				add_base_production = 2
				add_base_manpower = 2
			}
			168 = {
				add_base_tax = 2
				add_base_production = 2
				add_base_manpower = 2
			}
			8 = {
				add_permanent_province_modifier = {
					name = anbenncost_emigration
					duration = 18250
				}
			}
		}
	}
	
	anbenncost_proclaim_republic = {
		icon = mission_alliances
		required_missions = {
			anbenncost_fortify_damesear
			anbenncost_settle_countryside
		}
		position = 10
		trigger = {
			prestige = 50
		}
		effect = {
			country_event = {
				id = flavor_anbenncost.28
			}
		}
	}
}

anbenncost_4 = {
	slot = 4
	generic = no
	ai = yes
	has_country_shield = yes
	potential = {
		tag = A38
	}
	
	anbenncost_a_new_anbenncost = {
		icon = mission_early_game_buildings
		required_missions = { 
			anbenncost_day_in_city
		}
		position = 2
		trigger = {
			has_institution = renaissance
			8 = {
				owned_by = ROOT
			}
		}
		effect = {
			8 = {
				add_permanent_province_modifier = {
					name = anbenncost_new_anbenncost
					duration = -1
				}
			}
		}
	}
	
	anbenncost_revitalise_dovemarket = {
		icon = mission_dominate_home_trade_node
		required_missions = {
			anbenncost_a_new_anbenncost
		}
		position = 3
		trigger = {
			8 = {
				owned_by = ROOT
				has_trade_building_trigger = yes
			}
			dip_power = 100
		}
		effect = {
			add_dip_power = -100
			8 = {
				add_permanent_province_modifier = {
					name = anbenncost_revitalised_market
					duration = -1
				}
			}
		}
	}
	
	anbenncost_a_modern_anbenncost = {
		icon = mission_rb_the_bank_of_scotland
		required_missions = {
			anbenncost_renovate_temple
			anbenncost_revitalise_dovemarket
			anbenncost_upgrade_watchtowers
		}
		position = 4
		trigger = {
			8 = {
				owned_by = ROOT
			}
			has_institution = new_world_i
		}
		effect = {
			8 = {
				remove_province_modifier = anbenncost_new_anbenncost
				remove_province_modifier = anbenncost_renovated_temple
				remove_province_modifier = anbenncost_revitalised_market
				remove_province_modifier = anbenncost_watchtowers
				add_permanent_province_modifier = {
					name = anbenncost_modern_anbenncost
					duration = -1
				}
			}
		}
	}
	
	anbenncost_modernise_newport = {
		icon = mission_aragonese_navy
		required_missions = {
			anbenncost_a_modern_anbenncost
		}
		position = 5
		trigger = {
			8 = {
				owned_by = ROOT
				has_shipyard_building_trigger = yes
			}
			dip_power = 100
		}
		effect = {
			add_dip_power = -100
			8 = {
				add_permanent_province_modifier = {
					name = anbenncost_newport
					duration = -1
				}
			}
		}
	}
	
	anbenncost_an_equal_anbenncost = {
		icon = mission_russian_revolution
		required_missions = {
			anbenncost_modernise_newport
			anbenncost_expand_forgeway
			anbenncost_establish_officers_academy
		}
		position = 6
		trigger = {
			8 = {
				owned_by = ROOT
			}
			plutocracy_ideas = 3
		}
		effect = {
			8 = {
				remove_province_modifier = anbenncost_newport
				remove_province_modifier = anbenncost_forgeway
				remove_province_modifier = anbenncost_officers_academy
				remove_province_modifier = anbenncost_modern_anbenncost
				add_permanent_province_modifier = {
					name = anbenncost_equal_anbenncost
					duration = -1
				}
			}
		}
	}
	
	anbenncost_into_the_bilge = {
		icon = mission_asian_trader
		required_missions = {
			anbenncost_an_equal_anbenncost
		}
		position = 7
		trigger = {
			8 = {
				owned_by = ROOT
			}
			adm_power = 150
		}
		effect = {
			add_adm_power = -150
			country_event = {
				id = flavor_anbenncost.22
			}
		}
	}
	
	anbenncost_unite_twin_academies = {
		icon = mission_rb_renovate_oxbridge
		required_missions = {
			anbenncost_center_of_anbennar
		}
		position = 9
		trigger = {
			8 = {
				owned_by = ROOT
				has_building = university
			}
			adm_power = 100
		}
		effect = {
			add_adm_power = -100
			8 = {
				add_permanent_province_modifier = {
					name = anbenncost_united_academies
					duration = -1
				}
			}
		}
	}
	
	anbenncost_city_of_the_worlds_desire = {
		icon = mission_guilds_of_barcelona
		required_missions = {
			anbenncost_unite_twin_academies
			anbenncost_open_elvendocks
		}
		position = 10
		trigger = {
			8 = {
				owned_by = ROOT
			}
			has_institution = enlightenment
		}
		effect = {
			8 = {
				remove_province_modifier = anbenncost_united_academies
				remove_province_modifier = anbenncost_opened_elvendocks
				remove_province_modifier = anbenncost_center_anbennar
				add_permanent_province_modifier = {
					name = anbenncost_city_of_worlds_desire
					duration = -1
				}
			}
		}
	}
}

anbenncost_5 = {
	slot = 5
	generic = no
	ai = yes
	has_country_shield = yes
	potential = {
		tag = A38
	}
	
	anbenncost_upgrade_watchtowers = {
		icon = mission_great_wall
		required_missions = {
			anbenncost_a_new_anbenncost
		}
		position = 3
		trigger = {
			8 = {
				owned_by = ROOT
				has_manpower_building_trigger = yes
			}
			mil_power = 100
		}
		effect = {
			add_mil_power = -100
			8 = {
				add_permanent_province_modifier = {
					name = anbenncost_watchtowers
					duration = -1
				}
			}
		}
	}
	
	anbenncost_establish_officers_academy = {
		icon = mission_rb_the_education_acts
		required_missions = {
			anbenncost_a_modern_anbenncost
		}
		position = 5
		trigger = {
			8 = {
				owned_by = ROOT
				has_forcelimit_building_trigger = yes
			}
			mil_power = 100
		}
		effect = {
			add_mil_power = -100
			8 = {
				add_permanent_province_modifier = {
					name = anbenncost_officers_academy
					duration = -1
				}
			}
		}
	}
	
	anbenncost_city_of_many_peoples = {
		icon = mission_interfaith_relations
		required_missions = {
			anbenncost_an_equal_anbenncost
		}
		position = 7
		trigger = {
			8 = {
				owned_by = ROOT
			}
			dip_power = 100
		}
		effect = {
			add_dip_power = -100
			country_event = {
				id = flavor_anbenncost.24
			}
		}
	}
	
	anbenncost_center_of_anbennar = {
		icon = mission_rb_hanseatic_east
		required_missions = {
			anbenncost_into_the_bilge
			anbenncost_city_of_many_peoples
		}
		position = 8
		trigger = {
			8 = {
				owned_by = ROOT
				development = 70
			}
		}
		effect = {
			8 = {
				remove_province_modifier = anbenncost_equal_anbenncost
				add_permanent_province_modifier = {
					name = anbenncost_center_anbennar
					duration = -1
				}
			}
		}
	}
	
	anbenncost_open_elvendocks = {
		icon = mission_market_place_with_asian_traders
		required_missions = {
			anbenncost_center_of_anbennar
		}
		position = 9
		trigger = {
			8 = {
				owned_by = ROOT
			}
			prestige = 80
			dip_power = 150
		}
		effect = {
			add_dip_power = -150
			8 = {
				add_permanent_province_modifier = {
					name = anbenncost_opened_elvendocks
					duration = -1
				}
			}
		}
	}
}

