
##BranchStart 0
lorent_conquest1 = {
	slot = 1
	generic = no
	ai = yes
	potential = {
		tag = A15
	}
	has_country_shield = yes
	
	##Mission Start
	A15_the_inevitable = {
		icon = gory_to_the_black_army
		required_missions = {
			
		}
		position = 1
		provinces_to_highlight = {
			##PROVINCESHIGHLIGHTCODE
		}
		trigger = {
			OR = {
				war_with = A01
				is_year = 1465
			}
		}
		effect = {
			add_mil_power = 50
			add_country_modifier = {
				name = army_enthusiasm
				duration = 1825
			}
		}
	}
	##Mission End
	##Mission Start
	A15_end_charade = {
		icon = mission_discussion_arch
		required_missions = {
			A15_fate_of_minar A15_the_inevitable
		}
		position = 3
		provinces_to_highlight = {
			##PROVINCESHIGHLIGHTCODE
		}
		trigger = {
			OR = {
				num_of_allies = 3
				is_rival = A18
			}
		}
		effect = {
			southern_flats_area = {
				limit = {
					NOT = { is_core = ROOT }
					NOT = { is_permanent_claim = ROOT }
				}
				add_permanent_claim = ROOT
			}
			108 = {
				if = {
					limit = {
						NOT = { is_core = ROOT }
						NOT = { is_permanent_claim = ROOT }
					}
					add_permanent_claim = ROOT
				}
			}
		}
	}
	##Mission End
	##Mission Start
	A15_those_who_left = {
		icon = friends_in_high_places
		required_missions = {
			A15_end_charade
		}
		position = 4
		provinces_to_highlight = {
			OR = {
				province_id = 108
				area = southern_flats_area
			}
		}
		trigger = {
			southern_flats_area = {
				type = all
				country_or_non_sovereign_subject_holds = ROOT
			}
			108 = {
				country_or_non_sovereign_subject_holds = ROOT
			}
		}
		effect = {
			add_country_modifier = {
				name = eilisin_rubenaire_uni
				duration = 3650
			}
		}
	}
	##Mission End
	##Mission Start
	A15_greater_twin = {
		icon = unite_the_wittelsbachs
		required_missions = {
			A15_those_who_left
		}
		position = 5
		provinces_to_highlight = {
			OR = {
				province_id = 114
				province_id = 78
			}
		}
		trigger = {
			total_development = A14
			total_development = A04
			78 = {
				num_of_times_improved = 5
			}
		}
		effect = {
			add_casus_belli = {
				target = A14
				type = cb_vassalize_mission
				months = 300
			}
			lower_bloodwine_area = {
				limit = {
					NOT = { is_core = ROOT }
					NOT = { is_permanent_claim = ROOT }
				}
				add_permanent_claim = ROOT
			}
			105 = {
				if = {
					limit = {
						NOT = { is_core = ROOT }
						NOT = { is_permanent_claim = ROOT }
					}
					add_permanent_claim = ROOT
				}
			}
		}
	}
	##Mission End
	##Mission Start
	A15_stolen_inheritance = {
		icon = support_american_independence
		required_missions = {
			A15_greater_twin
		}
		position = 6
		provinces_to_highlight = {
			OR = {
				province_id = 105
				province_id = 114
			}
			NOT = {
				A15 = {
					owns_or_non_sovereign_subject_of = PREV
				}
			}
		}
		trigger = {
			owns_or_non_sovereign_subject_of = 105
			owns_or_non_sovereign_subject_of = 114
		}
		effect = {
			add_country_modifier = {
				name = eilisin_claimed_full_inheritance
				duration = 5475
			}
		}
	}
	##Mission End
	##Mission Start
	A15_shadow_over_lencenor = {
		icon = swiss_mercenaries
		required_missions = {
			A15_stolen_inheritance
		}
		position = 7
		provinces_to_highlight = {
			is_capital_of = A01
		}
		trigger = {
			army_size = A01
			total_development = A01
		}
		effect = {
			67 = {
				if = {
					limit = {
						NOT = { is_core = ROOT }
						NOT = { is_permanent_claim = ROOT }
					}
					add_claim = ROOT # Yes this is temporary, deal with it
				}
			}
		}
	}
	##Mission End
	##Mission Start
	A15_storm_the_court = {
		icon = boh_humiliate_austria
		required_missions = {
			A15_shadow_over_lencenor
		}
		position = 8
		provinces_to_highlight = {
			province_id = 67
		}
		trigger = {
			67 = {
				controlled_by = ROOT
			}
		}
		effect = {
			lencenor_region = {
				limit = {
					NOT = { is_core = ROOT }
					NOT = { is_permanent_claim = ROOT }
				}
				add_permanent_claim = ROOT
			}
		}
	}
	##Mission End
	##
	
}
##BranchEnd 0
##BranchStart 1
lorent_conquest2 = {
	slot = 2
	generic = no
	ai = yes
	potential = {
		tag = A15
	}
	has_country_shield = yes
	
	##Mission Start
	A15_bring_calas_home = {
		icon = friends_in_high_places
		required_missions = {
			
		}
		position = 1
		provinces_to_highlight = {
			##PROVINCESHIGHLIGHTCODE
		}
		trigger = {
			dip_power = 100
			mil_power = 100
		}
		effect = {
			if = {
				limit = { exists = A10 }
				add_casus_belli = {
					target = A10
					type = cb_vassalize_mission
					months = 300
				}
			}
			else = {
				97 = {
					if = {
						limit = {
							NOT = { is_core = ROOT }
							NOT = { is_permanent_claim = ROOT }
						}
						add_permanent_claim = ROOT
					}
				} 
			}
			country_event = { id = flavour_eilisin.1 }
		}
	}
	##Mission End
	##Mission Start
	A15_fate_of_minar = {
		icon = mission_unite_the_princes
		required_missions = {
			A15_bring_calas_home
		}
		position = 2
		provinces_to_highlight = {
			province_id = 97
		}
		trigger = {
			owns_or_non_sovereign_subject_of = 97
		}
		effect = {
			81 = {
				if = {
					limit = {
						NOT = { is_core = ROOT }
						NOT = { is_permanent_claim = ROOT }
					}
					add_permanent_claim = ROOT
				}
			}
			101 = {
				if = {
					limit = {
						NOT = { is_core = ROOT }
						NOT = { is_permanent_claim = ROOT }
					}
					add_permanent_claim = ROOT
				}
			}
		}
	}
	##Mission End
	##Mission Start
	A15_close_wineport = {
		icon = mission_develop_nevas_port
		required_missions = {
			A15_fate_of_minar
		}
		position = 3
		provinces_to_highlight = {
			OR = {
				province_id = 81
				province_id = 101
			}
			NOT = { country_or_non_sovereign_subject_holds = ROOT }
		}
		trigger = {
			owns_or_non_sovereign_subject_of = 81
			owns_or_non_sovereign_subject_of = 101
		}
		effect = {
			eastern_winebay_area = {
				limit = {
					NOT = { is_core = ROOT }
					NOT = { is_permanent_claim = ROOT }
				}
				add_permanent_claim = ROOT
			}
			lower_winebay_area = {
				limit = {
					NOT = { is_core = ROOT }
					NOT = { is_permanent_claim = ROOT }
				}
				add_permanent_claim = ROOT
			}
		}
	}
	##Mission End
	##Mission Start
	A15_clenched_fist = {
		icon = mission_missive
		required_missions = {
			A15_close_wineport
		}
		position = 4
		provinces_to_highlight = {
			OR = {
				area = eastern_winebay_area
				area = lower_winebay_area
			}
			NOT = { country_or_non_sovereign_subject_holds = ROOT }
		}
		trigger = {
			eastern_winebay_area = {
				type = all
				country_or_non_sovereign_subject_holds = ROOT
			}
			lower_winebay_area = {
				type = all
				country_or_non_sovereign_subject_holds = ROOT
			}
		}
		effect = {
			add_country_modifier = {
				name = eilisin_closed_fist
				duration = -1
			}
		}
	}
	##Mission End
	##Mission Start
	A15_new_wing = {
		icon = defend_the_city
		required_missions = {
			A15_non_stop_growth A15_those_who_left
		}
		position = 5
		provinces_to_highlight = {
			##PROVINCESHIGHLIGHTCODE
		}
		trigger = {
			treasury = 500
			has_estate_privilege = estate_mages_organization_state
			owns = 79
		}
		effect = {
			add_treasury = -500
			79 = {
				add_province_modifier = {
					name = eilisin_mage_wing_construction
					duration = 5475
				}
			}
		}
	}
	##Mission End
	##Mission Start
	A15_prying_eyes = {
		icon = mission_diplomacy_missive
		required_missions = {
			A15_new_wing
		}
		position = 6
		provinces_to_highlight = {
			province_id = 79
		}
		trigger = {
			owns = 79
			79 = {
				NOT = { has_province_modifier = eilisin_mage_wing_construction }
			}
			has_estate_privilege = estate_mages_reduced_research_regulations
		}
		effect = {
			custom_tooltip = eilisin_better_reduced_regulations
			set_country_flag = reduced_dip_from_regulations
			add_country_modifier = {
				name = eilisin_mage_wing
				duration = -1
			}
		}
	}
	##Mission End
	##Mission Start
	A15_reshaping_the_world = {
		icon = prosper_in_piedmont
		required_missions = {
			A15_prying_eyes
		}
		position = 7
		provinces_to_highlight = {
			##PROVINCESHIGHLIGHTCODE
		}
		trigger = {
			ruler_has_mage_personality = yes
			OR = {
				manpower = 1
				custom_trigger_tooltip = {
					tooltip = tooltip_has_transmutation_3
					has_ruler_flag = transmutation_3
				}
			}
		}
		effect = {
			if = {
				limit = {
					NOT = { has_ruler_flag = transmutation_3 }
				}
				add_manpower = -1
				magic_study_level_up_transmutation = yes
				increase_witch_king_points_small = yes
			}
			set_country_flag = better_plant_growth
		}
	}
	##Mission End
	##Mission Start
	A15_a_budding_rose = {
		icon = support_american_independence
		required_missions = {
			A15_reshaping_the_world
		}
		position = 8
		provinces_to_highlight = {
			##PROVINCESHIGHLIGHTCODE
		}
		trigger = {
			OR = {
				heir_has_mage_personality = yes
				has_country_modifier = heir_mage_personality_mod
			}
			dip_power = 100
		}
		effect = {
			add_dip_power = -100
			set_country_flag = add_transmutation_1_point
			add_country_modifier = {
				name = eilisin_trained_heirs
				duration = -1
			}
		}
	}
	##Mission End
	##Mission Start
	A15_dark_rose_blooms = {
		icon = mission_empire
		required_missions = {
			A15_a_budding_rose A15_storm_the_court
		}
		position = 9
		provinces_to_highlight = {
			region = lencenor_region
			NOT = { owned_by = ROOT }
		}
		trigger = {
			lencenor_region = {
				type = all
				owned_by = ROOT # No subjects
			}
			has_ruler_modifier = witch_king_modifier
		}
		effect = {
			add_country_modifier = {
				name = eilisin_dark_rose_blooms
				duration = -1
			}
		}
	}
	##Mission End
	##
	
}
##BranchEnd 1
##BranchStart 2
wine_buildup = {
	slot = 3
	generic = no
	ai = yes
	potential = {
		tag = A15
	}
	has_country_shield = yes
	
	##Mission Start
	A15_replant_the_fields = {
		icon = prosper_in_piedmont
		required_missions = {
			
		}
		position = 1
		provinces_to_highlight = {
			province_id = 79
			OR = {
				NOT = { development = 10 }
				has_production_building_trigger = yes
			}
		}
		trigger = {
			79 = {
				development = 10
				has_production_building_trigger = yes
			}
		}
		effect = {
			79 = {
				add_province_modifier = {
					name = eilisin_replanted_fields
					duration = 9125
				}
			}
		}
	}
	##Mission End
	##Mission Start
	A15_strengthen_the_bloodlines = {
		icon = consolidate_the_stadholders
		required_missions = {
			A15_crush_the_rebels A15_replant_the_fields
		}
		position = 2
		provinces_to_highlight = {
			##PROVINCESHIGHLIGHTCODE
		}
		trigger = {
			adm_power = 100
			has_reform = magical_elite_reform
			owns = 79
		}
		effect = {
			add_adm_power = -100
			change_estate_land_share = {
				estate = estate_mages
				share = 5
			}
			79 = {
				add_base_production = 2
			}
		}
	}
	##Mission End
	##Mission Start
	A15_non_stop_growth = {
		icon = bohemian_crystal
		required_missions = {
			A15_strengthen_the_bloodlines
		}
		position = 4
		provinces_to_highlight = {
			province_id = 79
		}
		trigger = {
			79 = {
				OR = {
					has_province_modifier = magic_realm_transmutation_plant_growth_1
					has_province_modifier = magic_realm_transmutation_plant_growth_2
					has_province_modifier = magic_realm_transmutation_plant_growth_3
				}
			}
		}
		effect = {
			79 = {
				add_permanent_province_modifier = {
					name = eilisin_1
					duration = -1
				}
			}
			hidden_effect = { country_event = { id = flavour_eilisin.2 days = 60 random = 10 } }
		}
	}
	##Mission End
	##Mission Start
	A15_the_old_ways = {
		icon = expand_the_arsenal
		required_missions = {
			A15_non_stop_growth
		}
		position = 5
		provinces_to_highlight = {
			province_id = 79
		}
		trigger = {
			79 = {
				has_manufactory_trigger = yes
				OR = {
					has_province_modifier = eilisin_1_bad
					has_province_modifier = eilisin_reduced_plant_growth
				}
			}
			treasury = 100
		}
		effect = {
			add_treasury = -100
			79 = {
				remove_province_modifier = eilisin_1
				remove_province_modifier = eilisin_1_bad
				remove_province_modifier = eilisin_reduced_plant_growth
				add_permanent_province_modifier = {
					name = eilisin_2
					duration = -1
				}
			}
		}
	}
	##Mission End
	##Mission Start
	A15_the_lesser_wine = {
		icon = mission_wine_monopolies
		required_missions = {
			A15_the_old_ways
		}
		position = 6
		provinces_to_highlight = {
			##PROVINCESHIGHLIGHTCODE
		}
		trigger = {
			adm_power = 100
			owns_or_non_sovereign_subject_of = 108 
			owns_or_non_sovereign_subject_of = 114
			custom_trigger_tooltip = {
				tooltip = tooltip_has_transmutation_2
				has_ruler_flag = transmutation_2
			}
		}
		effect = {
			add_adm_power = -100
			108 = {
				add_base_production = -2
			}
			114 = {
				add_base_production = -2
			}
			79 = {
				remove_province_modifier = eilisin_2
				add_base_production = 4
				add_permanent_province_modifier = {
					name = eilisin_3
					duration = -1
				}
			}
		}
	}
	##Mission End
	##Mission Start
	A15_vineyards_of_life_mission = {
		icon = mission_noble_council
		required_missions = {
			A15_the_lesser_wine A15_reshaping_the_world
		}
		position = 8
		provinces_to_highlight = {
			##PROVINCESHIGHLIGHTCODE
		}
		trigger = {
			estate_loyalty = {
				estate = estate_mages
				loyalty = 60
			}
			estate_influence = {
				estate = estate_mages
				influence = 66
			}
			manpower = 5
			79 = {
				OR = {
					has_province_modifier = magic_realm_transmutation_plant_growth_1
					has_province_modifier = magic_realm_transmutation_plant_growth_2
					has_province_modifier = magic_realm_transmutation_plant_growth_3
				} 
			}
		}
		effect = {
			add_manpower = -5
			79 = {
				remove_province_modifier = eilisin_3
				add_permanent_province_modifier = {
					name = eilisin_4
					duration = -1
				}
			}
			increase_witch_king_points_small = yes
		}
	}
	##Mission End
	##Mission Start
	A15_coming_to_bear = {
		icon = mission_colonial
		required_missions = {
			A15_a_budding_rose A15_vineyards_of_life_mission A15_prepare_the_land
		}
		position = 9
		provinces_to_highlight = {
			##PROVINCESHIGHLIGHTCODE
		}
		trigger = {
			custom_trigger_tooltip = {
				tooltip = tooltip_has_transmutation_3
				has_ruler_flag = transmutation_3
			}
			custom_trigger_tooltip = {
				tooltip = tooltip_has_necromancy_2
				has_ruler_flag = necromancy_2
			}
			NOT = { has_country_modifier = eilisin_prepare_carneter }
		}
		effect = {
			country_event = { id = flavour_eilisin.3 }
			increase_witch_king_points_large = yes
		}
	}
	##Mission End
	##
	
}
##BranchEnd 2
##BranchStart 3
carneter_conquest1 = {
	slot = 4
	generic = no
	ai = yes
	potential = {
		tag = A15
	}
	has_country_shield = yes
	
	##Mission Start
	A15_crush_the_rebels = {
		icon = reform_bergordnung
		required_missions = {
			
		}
		position = 1
		provinces_to_highlight = {
			##PROVINCESHIGHLIGHTCODE
		}
		trigger = {
			custom_trigger_tooltip = {
				tooltip = seize_crownland
				has_country_flag = recent_land_seizure
			}
		}
		effect = {
			change_estate_land_share = {
				estate = estate_nobles
				share = -15
			}
			add_estate_influence_modifier = {
				estate = estate_nobles
				desc = EST_VAL_CRUSHED_EILISIN_REBELS
				influence = -10
				duration = 7300
			}
			capital_scope = {
				spawn_rebels = {
					type = noble_rebels
					size = 2
				}
			}
			add_stability_or_adm_power = yes
		}
	}
	##Mission End
	##Mission Start
	A15_ordoin_contacts = {
		icon = mission_conquer_50_development
		required_missions = {
			A15_protect_carneter
		}
		position = 2
		provinces_to_highlight = {
			province_id = 20
		}
		trigger = {
			20 = {
				owner = {
					OR = {
						tag = ROOT
						has_spy_network_from = {
							value = 50
							who = ROOT
						}
					}
				}
			}
		}
		effect = {
			20 = {
				add_province_modifier = {
					name = eilisin_ordoin_contacts
					duration = 18250
				}
				custom_tooltip = eilisin_ordoin_rebel
				hidden_effect = {
					if = {
						limit = { 
							NOT = { owned_by = ROOT }
						}
						owner = {
							add_spy_network_from = {
								value = -50
								who = ROOT
							}
						}
					}
				}
			}
		}
	}
	##Mission End
	##Mission Start
	A15_the_great_liberation = {
		icon = mission_cossack_cavalry
		required_missions = {
			A15_ordoin_contacts
		}
		position = 3
		provinces_to_highlight = {
			##PROVINCESHIGHLIGHTCODE
		}
		trigger = {
			if = {
				limit = {
					NOT = { owns = 20 }
				}
				offensive_war_with = A01
			}
			else = {
				owns = 20
			}
		}
		effect = {
			if = {
				limit = { NOT = { owns = 20 } }
				add_country_modifier = {
					name = eilisin_great_liberation
					duration = 3650
				}
			}
		}
	}
	##Mission End
	##Mission Start
	A15_recover_the_duchy = {
		icon = mission_rb_control_electors
		required_missions = {
			A15_the_great_liberation
		}
		position = 4
		provinces_to_highlight = {
			area = carneteria_area
		}
		trigger = {
			carneteria_area = {
				type = all
				owned_by = ROOT # No subjects
			}
		}
		effect = {
			add_country_modifier = {
				name = eilisin_recovered_the_duchy
				duration = 9125 #25 years
			}
		}
	}
	##Mission End
	##Mission Start
	A15_woodwell_ultimatum = {
		icon = mission_confrontation
		required_missions = {
			A15_recover_the_duchy A15_sway_the_emperor
		}
		position = 5
		provinces_to_highlight = {
			##PROVINCESHIGHLIGHTCODE
		}
		trigger = {
			OR = {
				woodwell_area = {
					country_or_non_sovereign_subject_holds = ROOT 
					type = all
				}
				AND = {
					army_size = A88
					custom_trigger_tooltip = {
						tooltip = tooltip_has_enchantment_1
						has_ruler_flag = enchantment_1
					}
				}
			}
		}
		effect = {
			A88 = { country_event = { id = flavour_eilisin.4 days = 7 } }
			57 = {
				if = {
					limit = {
						NOT = { is_core = ROOT }
						NOT = { is_permanent_claim = ROOT }
					}
					add_permanent_claim = ROOT
				}
			}
		}
	}
	##Mission End
	##Mission Start
	A15_carneter_restoration = {
		icon = mission_monarch_in_throne_room
		required_missions = {
			A15_woodwell_ultimatum
		}
		position = 6
		provinces_to_highlight = {
			OR = {
				province_id = 57
				area = woodwell_area
			}
			NOT = { owned_by = ROOT }
		}
		trigger = {
			woodwell_area = {
				type = all
				owned_by = ROOT
			}
			owns = 57
		}
		effect = {
			pearlywine_area = {
				limit = {
					NOT = { is_core = ROOT }
					NOT = { is_permanent_claim = ROOT }
				}
				add_permanent_claim = ROOT
			}
			set_government_rank = 2
		}
	}
	##Mission End
	##Mission Start
	A15_carneter_survery = {
		icon = 	mission_asian_trader
		required_missions = {
			A15_carneter_restoration
		}
		position = 7
		provinces_to_highlight = {
			##PROVINCESHIGHLIGHTCODE
		}
		trigger = {
			OR = {
				custom_trigger_tooltip = {
					tooltip = tooltip_has_divination_1
					has_ruler_flag = divination_1
				}
				AND = {
					adm_power = 200
					treasury = 300
				}
			}
		}
		effect = {
			if = {
				limit = { NOT = { has_ruler_flag = divination_1 } }
				add_adm_power = -200
				add_treasury = -300
			}
			add_country_modifier = {
				name = eilisin_prepare_carneter
				duration = 3650
			}
			carneteria_area = {
				add_province_modifier = {
					name = eilisin_survey_carneter
					duration = 3650
				}
			}
			woodwell_area = {
				add_province_modifier = {
					name = eilisin_survey_carneter
					duration = 3650
				}
			}
			57 = {
				add_province_modifier = {
					name = eilisin_survey_carneter
					duration = 3650
				}
			}
		}
	}
	##Mission End
	##Mission Start
	A15_prepare_the_land = {
		icon = mission_guarded_market
		required_missions = {
			A15_emperors_sway A15_carneter_survery
		}
		position = 8
		provinces_to_highlight = {
			##PROVINCESHIGHLIGHTCODE
		}
		trigger = {
			NOT = { has_country_modifier = eilisin_prepare_carneter }
			treasury = 500
		}
		effect = {
			add_treasury = -500
			add_country_modifier = {
				name = eilisin_prepare_carneter
				duration = 3650
			}
			carneteria_area = {
				add_province_modifier = {
					name = eilisin_prepare_the_land
					duration = 3650
				}
			}
			woodwell_area = {
				add_province_modifier = {
					name = eilisin_prepare_the_land
					duration = 3650
				}
			}
			57 = {
				add_province_modifier = {
					name = eilisin_prepare_the_land
					duration = 3650
				}
			}
		}
	}
	##Mission End
	##
	
}
##BranchEnd 3
##BranchStart 4
carneter_conquest2 = {
	slot = 5
	generic = no
	ai = yes
	potential = {
		tag = A15
	}
	has_country_shield = yes
	
	##Mission Start
	A15_protect_carneter = {
		icon = mission_mountain_castle
		required_missions = {
			
		}
		position = 1
		provinces_to_highlight = {
			province_id = 31
			NOT = { has_fort_building_trigger = yes }
		}
		trigger = {
			31 = {
				has_fort_building_trigger = yes
			}
			owns = 31
		}
		effect = {
			add_country_modifier = {
				name = eilisin_defended_carnter
				duration = 18250
			}
		}
	}
	##Mission End
	##Mission Start
	A15_splended_court_of_carneter = {
		icon = mission_steppe_warriors
		required_missions = {
			A15_protect_carneter
		}
		position = 2
		provinces_to_highlight = {
			province_id = 19
		}
		trigger = {
			19 = {
				has_courthouse_building_trigger = yes
				development = 15
				owned_by = ROOT
			}
		}
		effect = {
			add_splendor = 100
			19 = {
				add_province_modifier = {
					name = eilisin_splendid_court
					duration = 5475
				}
			}
		}
	}
	##Mission End
	##Mission Start
	A15_sway_the_emperor = {
		icon = centralized_empire
		required_missions = {
			A15_splended_court_of_carneter
		}
		position = 4
		provinces_to_highlight = {
			##PROVINCESHIGHLIGHTCODE
		}
		trigger = {
			emperor = {
				has_opinion = {
					who = ROOT
					value = 100
				}
			}
			dip_power = 100
			employed_advisor = {
				category = DIP
			}
		}
		effect = {
			add_dip_power = -100
			woodwell_area = {
				limit = {
					NOT = { is_core = ROOT }
					NOT = { is_permanent_claim = ROOT }
				}
				add_permanent_claim = ROOT
			}
			emperor = {
				add_country_modifier = {
					name = eilisin_carneter_negotiation
					duration = 18250
				}
				hidden_effect = { country_event = { id = flavour_eilisin.7 } }
			}
		}
	}
	##Mission End
	##Mission Start
	A15_emperors_sway = {
		icon = mission_heated_battle
		required_missions = {
			A15_carneter_restoration
		}
		position = 7
		provinces_to_highlight = {
			OR = {
				area = carneteria_area
				area = woodwell_area
				province_id = 57
			}
			local_autonomy = 5
		}
		trigger = {
			carneteria_area = {
				type = all
				owned_by = ROOT
				NOT = { local_autonomy = 5 }
			}
			woodwell_area = {
				type = all
				owned_by = ROOT
				NOT = { local_autonomy = 5 }
			}
			57 = {
				owned_by = ROOT
				NOT = { local_autonomy = 5 }
			}
			army_size = emperor
		}
		effect = {
			add_country_modifier = {
				name = eilisin_carneter_no_bow
				duration = -1
			}
			carneteria_area = {
				set_in_empire = no
			}
			woodwell_area = {
				set_in_empire = no
			}
			57 = {
				set_in_empire = no
			}
		}
	}
	##Mission End
	##Mission Start
	A15_expel_reavers = {
		icon = mission_expel_the_moriscos
		required_missions = {
			A15_emperors_sway
		}
		position = 8
		provinces_to_highlight = {
			area = pearlywine_area
			culture = pearlsedger
		}
		trigger = {
			pearlywine_area = {
				type = all
				OR = {
					culture = west_damerian
					culture = high_lorentish
				}
			}
		}
		effect = {
			add_dip_power = 100
			carneteria_area = {
				add_province_modifier = {
					name = eilisin_centralized_carneter
					duration = -1
				}
			}
			pearlywine_area = {
				add_province_modifier = {
					name = eilisin_centralized_carneter
					duration = -1
				}
			}
			woodwell_area = {
				add_province_modifier = {
					name = eilisin_centralized_carneter
					duration = -1
				}
			}
		}
	}
	##Mission End
	##
	
}
##BranchEnd 4
