
khozrugan_religious = {
	slot = 1
	generic = no
	ai = yes
	potential = {
		tag = Z51
		NOT = { map_setup = map_setup_random }
	}
	has_country_shield = yes

	Z51_in_honor_of_our_god = {
		icon = mission_hands_praying
		required_missions = {  } #None
		position = 1
		trigger = {
			num_of_owned_provinces_with = {
				value = 20
				has_tax_building_trigger = yes
			}
		}
		effect = {
			add_country_modifier = {
				name = "khozrugan_in_honor_of_our_god"
				duration = 9125 #25 years
			}
		}
	}
}

khozrugan_vassals = {
	slot = 1
	generic = no
	ai = yes
	potential = {
		tag = Z51
		NOT = { map_setup = map_setup_random }
	}
	has_country_shield = yes

	Z51_loyal_clans = {
		icon = mission_have_two_subjects
		position = 3
		required_missions = {  }
		trigger = {
			custom_trigger_tooltip = {
				tooltip = khozrugan_loyal_clans_tooltip
				calc_true_if = {
					all_subject_country = {
						culture_group = orcish
						has_opinion = {
							who = ROOT
							value = 150
						}
					}
					amount = 3
				}
			}
		}
		effect = {
			add_country_modifier = {
				name = "khozrugan_loyal_clans"
				duration = 9125 #25 years
			}
		}
	}
}

khozrugan_gerudia = {
	slot = 1
	generic = no
	ai = yes
	potential = {
		tag = Z51
		NOT = { map_setup = map_setup_random }
	}
	has_country_shield = yes

	Z51_eliminate_northern_raiders = {
		icon = mission_establish_high_seas_navy
		position = 7
		required_missions = { Z51_subjugate_gray_orcs }
		provinces_to_highlight = {
			superregion = gerudia_superregion
			NOT = { owned_by = ROOT }
		}
		trigger = {
			gerudia_superregion = {
				type = all
				country_or_non_sovereign_subject_holds = ROOT
			}
		}
		effect = {
			add_prestige = 25
		}
	}
}

khozrugan_western_campaign = {
	slot = 1
	generic = no
	ai = yes
	potential = {
		tag = Z51
		NOT = { map_setup = map_setup_random }
	}
	has_country_shield = yes

	Z51_finish_off_gawed = {
		icon = mission_conquer_50_development
		position = 8
		required_missions = { Z51_forced_abolitionism }
		trigger = {
			NOT = { exists = A13 }
		}
		effect = {
			add_prestige = 25
			lorentish_approach_area = {
				limit = {
					NOT = { is_core = ROOT }
					NOT = { is_permanent_claim = ROOT }
				}
				add_claim = ROOT
			}
			norley_area = {
				limit = {
					NOT = { is_core = ROOT }
					NOT = { is_permanent_claim = ROOT }
				}
				add_claim = ROOT
			}
			pearpoint_area = {
				limit = {
					NOT = { is_core = ROOT }
					NOT = { is_permanent_claim = ROOT }
				}
				add_claim = ROOT
			}
			dragonhills_area = {
				limit = {
					NOT = { is_core = ROOT }
					NOT = { is_permanent_claim = ROOT }
				}
				add_claim = ROOT
			}
		}
	}

	Z51_smaller_than_nothing = {
		icon = mission_rb_conquer_wales
		required_missions = { Z51_finish_off_gawed }
		position = 9
		provinces_to_highlight = {
			OR = {
				area = lorentish_approach_area
				area = norley_area
				area = pearpoint_area
			}
			NOT = { country_or_non_sovereign_subject_holds = ROOT }
		}
		trigger = {
			NOT = { exists = A97 }
			lorentish_approach_area = {
				type = all
				country_or_non_sovereign_subject_holds = ROOT
			}
			norley_area = {
				type = all
				country_or_non_sovereign_subject_holds = ROOT
			}
			pearpoint_area = {
				type = all
				country_or_non_sovereign_subject_holds = ROOT
			}
		}
		effect = {
			viswall_area = {
				limit = {
					NOT = { is_core = ROOT }
					NOT = { is_permanent_claim = ROOT }
				}
				add_claim = ROOT
			}
			roysfort_area = {
				limit = {
					NOT = { is_core = ROOT }
					NOT = { is_permanent_claim = ROOT }
				}
				add_claim = ROOT
			}
			the_borders_area = {
				limit = {
					NOT = { is_core = ROOT }
					NOT = { is_permanent_claim = ROOT }
				}
				add_claim = ROOT
			}
			thomsbridge_area = {
				limit = {
					NOT = { is_core = ROOT }
					NOT = { is_permanent_claim = ROOT }
				}
				add_claim = ROOT
			}
			applefields_area = {
				limit = {
					NOT = { is_core = ROOT }
					NOT = { is_permanent_claim = ROOT }
				}
				add_claim = ROOT
			}
			lorenans_reach_area = {
				limit = {
					NOT = { is_core = ROOT }
					NOT = { is_permanent_claim = ROOT }
				}
				add_claim = ROOT
			}
			gnomish_pass_area = {
				limit = {
					NOT = { is_core = ROOT }
					NOT = { is_permanent_claim = ROOT }
				}
				add_claim = ROOT
			}
		}
	}
	Z51_cross_widderoy = {
		icon = mission_conquer_50_development
		required_missions = { Z51_smaller_than_nothing }
		position = 10
		provinces_to_highlight = {
			OR = {
				area = viswall_area
				area = roysfort_area
				area = the_borders_area
				area = thomsbridge_area
				area = applefields_area
				area = lorenans_reach_area
			}
			NOT = { country_or_non_sovereign_subject_holds = ROOT }
		}
		trigger = {
			viswall_area = {
				type = all
				country_or_non_sovereign_subject_holds = ROOT
			}
			roysfort_area = {
				type = all
				country_or_non_sovereign_subject_holds = ROOT
			}
			the_borders_area = {
				type = all
				country_or_non_sovereign_subject_holds = ROOT
			}
			thomsbridge_area = {
				type = all
				country_or_non_sovereign_subject_holds = ROOT
			}
			applefields_area = {
				type = all
				country_or_non_sovereign_subject_holds = ROOT
			}
			lorenans_reach_area = {
				type = all
				country_or_non_sovereign_subject_holds = ROOT
			}
		}
		effect = {
			lencenor_region = {
				limit = {
					NOT = { is_core = ROOT }
					NOT = { is_permanent_claim = ROOT }
				}
				add_claim = ROOT
			}
		}
	}
	Z51_no_more_lilac_wars = {
		icon = mission_conquer_50_development
		required_missions = { Z51_cross_widderoy }
		position = 13
		provinces_to_highlight = {
			region = lencenor_region
			NOT = { country_or_non_sovereign_subject_holds = ROOT  }
		}
		trigger = {
			lencenor_region = {
				type = all
				country_or_non_sovereign_subject_holds = ROOT
			}
		}
		effect = {
			add_prestige = 50
		}
	}
}

khozrugan_orc_subjugation = {
	slot = 2
	generic = no
	ai = yes
	potential = {
		tag = Z51
		NOT = { map_setup = map_setup_random }
	}
	has_country_shield = yes

	Z51_found_artugur = {
		icon = mission_fortify_rajputana
		required_missions = { Z51_unite_khozrugan }
		position = 3
		provinces_to_highlight = {
			province_id = 757
			OR = {
				NOT = { country_or_non_sovereign_subject_holds = ROOT  }
				NOT = { fort_level = 2 }
				NOT = { development = 15 }
				
			}
		}
		trigger = {
			757 = {
				fort_level = 2
				development = 15
				owned_by = ROOT
			}
		}
		effect = {
			757 = {
				move_capital_effect = yes
				add_base_production = 2
				add_base_manpower = 2
				change_province_name = Artugur
				rename_capital = Artugur
			}
			south_castanor_region = {
				limit = {
					NOT = { is_core = ROOT }
					NOT = { is_permanent_claim = ROOT }
				}
				add_claim = ROOT
			}
		}
	}
	Z51_conquer_barumand = {
		icon = mission_rb_import_potatoes
		required_missions = { Z51_found_artugur }
		position = 4
		provinces_to_highlight = {
			region = south_castanor_region
			NOT = { country_or_non_sovereign_subject_holds = ROOT  }
		}
		trigger = {
			NOT = { exists = Z53 }
			south_castanor_region = {
				type = all
				country_or_non_sovereign_subject_holds = ROOT
			}
		}
		effect = {
			add_mil_power = 200
			757 = {
				add_base_manpower = 2
			}
			inner_castanor_region = {
				limit = {
					NOT = { is_core = ROOT }
					NOT = { is_permanent_claim = ROOT }
				}
				add_claim = ROOT
			}
		}
	}
	Z51_conquer_unguldavor = {
		icon = mission_jawal_silver_mine
		required_missions = { Z51_conquer_barumand }
		position = 5
		provinces_to_highlight = {
			region = inner_castanor_region
			NOT = { country_or_non_sovereign_subject_holds = ROOT  }
		}
		trigger = {
			NOT = { exists = Z52 }
			inner_castanor_region = {
				type = all
				country_or_non_sovereign_subject_holds = ROOT
			}
		}
		effect = {
			add_mil_power = 200
			757 = {
				add_base_manpower = 2
			}
			wudhal_area = {
				limit = {
					NOT = { is_core = ROOT }
					NOT = { is_permanent_claim = ROOT }
				}
				add_claim = ROOT
			}
			sondaar_area = {
				limit = {
					NOT = { is_core = ROOT }
					NOT = { is_permanent_claim = ROOT }
				}
				add_claim = ROOT
			}
			east_chillsbay_area = {
				limit = {
					NOT = { is_core = ROOT }
					NOT = { is_permanent_claim = ROOT }
				}
				add_claim = ROOT
			}
			east_chillsbay_area = {
				limit = {
					NOT = { is_core = ROOT }
					NOT = { is_permanent_claim = ROOT }
				}
				add_claim = ROOT
			}
			vrorenwall_area = {
				limit = {
					NOT = { is_core = ROOT }
					NOT = { is_permanent_claim = ROOT }
				}
				add_claim = ROOT
			}
			cedesck_area = {
				limit = {
					NOT = { is_core = ROOT }
					NOT = { is_permanent_claim = ROOT }
				}
				add_claim = ROOT
			}
			gulletpeak_area = {
				limit = {
					NOT = { is_core = ROOT }
					NOT = { is_permanent_claim = ROOT }
				}
				add_claim = ROOT
			}
			vrorenmarch_area = {
				limit = {
					NOT = { is_core = ROOT }
					NOT = { is_permanent_claim = ROOT }
				}
				add_claim = ROOT
			}
			southern_giants_tears_area = {
				limit = {
					NOT = { is_core = ROOT }
					NOT = { is_permanent_claim = ROOT }
				}
				add_claim = ROOT
			}
			northern_giants_tears_area = {
				limit = {
					NOT = { is_core = ROOT }
					NOT = { is_permanent_claim = ROOT }
				}
				add_claim = ROOT
			}
		}
	}
	Z51_subjugate_gray_orcs = {
		icon = mission_galleys_in_port
		required_missions = { Z51_conquer_unguldavor }
		position = 6
		provinces_to_highlight = {
			OR = {
				area = wudhal_area
				area = sondaar_area
				area = east_chillsbay_area
				area = east_chillsbay_area
				area = vrorenwall_area
				area = cedesck_area
				area = gulletpeak_area
				area = vrorenmarch_area
				area = southern_giants_tears_area
				area = northern_giants_tears_area
			}
			NOT = { country_or_non_sovereign_subject_holds = ROOT  }
		}
		trigger = {
			wudhal_area = {
				type = all
				country_or_non_sovereign_subject_holds = ROOT
			}
			sondaar_area = {
				type = all
				country_or_non_sovereign_subject_holds = ROOT
			}
			east_chillsbay_area = {
				type = all
				country_or_non_sovereign_subject_holds = ROOT
			}
			east_chillsbay_area = {
				type = all
				country_or_non_sovereign_subject_holds = ROOT
			}
			vrorenwall_area = {
				type = all
				country_or_non_sovereign_subject_holds = ROOT
			}
			cedesck_area = {
				type = all
				country_or_non_sovereign_subject_holds = ROOT
			}
			gulletpeak_area = {
				type = all
				country_or_non_sovereign_subject_holds = ROOT
			}
			vrorenmarch_area = {
				type = all
				country_or_non_sovereign_subject_holds = ROOT
			}
			southern_giants_tears_area = {
				type = all
				country_or_non_sovereign_subject_holds = ROOT
			}
			northern_giants_tears_area = {
				type = all
				country_or_non_sovereign_subject_holds = ROOT
			}
		}
		effect = {
			add_mil_power = 200
			757 = {
				add_base_manpower = 2
			}
		}
	}
	Z51_second_dookanson = {
		icon = mission_control_the_ganges_delta
		required_missions = { Z51_subjugate_gray_orcs }
		position = 7
		trigger = {
			army_tradition = 50
			army_size_percentage = 1
			OR = {
				AND = {
					dynasty = "Ostokhan"
					mil = 6
				}
				has_ruler_modifier = khozrugan_defeated_pretender
			}
		}
		effect = {
			add_country_modifier = {
				name = "khozrugan_unifiers_of_orcs"
				duration = -1
			}
		}
	}
}

khozrugan_dragon_coast = {
	slot = 2
	generic = no
	ai = yes
	potential = {
		tag = Z51
		NOT = { map_setup = map_setup_random }
	}
	has_country_shield = yes

	Z51_conquer_gnomish_pass = {
		icon = mission_galleys_in_port
		required_missions = { Z51_smaller_than_nothing }
		position = 10
		trigger = {
			gnomish_pass_area = {
				type = all
				country_or_non_sovereign_subject_holds = ROOT
			}
		}
		effect = {
			add_country_modifier = {
				name = "khozrugan_prepare_to_conquer_seas"
				duration = 3650 #10 years
			}
			dragon_coast_region = {
				limit = {
					NOT = { is_core = ROOT }
					NOT = { is_permanent_claim = ROOT }
				}
				add_claim = ROOT
			}
		}
	}
	Z51_conquer_dragon_coast = {
		icon = mission_establish_high_seas_navy
		required_missions = { Z51_conquer_gnomish_pass }
		position = 11
		trigger = {
			dragon_coast_region = {
				type = all
				country_or_non_sovereign_subject_holds = ROOT
			}
		}
		effect = {
			add_country_modifier = {
				name = "khozrugan_studying_gnomish_technologies"
				duration = 9125 #25 years
			}
		}
	}
}

khozrugan_wexkeep = {
	slot = 2
	generic = no
	ai = yes
	potential = {
		tag = Z51
		NOT = { map_setup = map_setup_random }
	}
	has_country_shield = yes

	Z51_last_castanorian_citadel = {
		icon = mission_conquer_50_development
		required_missions = { Z51_conquer_esmaria }
		position = 12
		provinces_to_highlight = {
			province_id = 306
			NOT = { owned_by = ROOT }
		}
		trigger = {
			306 = {
				NOT = {
					has_fort_building_trigger = yes
				}
				owned_by = ROOT
			}
		}
		effect = {
			add_prestige = 10
			306 = {
				remove_province_modifier = castanorian_citadel
				add_province_modifier = {
					name = "ruined_castanorian_citadel"
					duration = -1
				}
			}
			add_country_modifier = {
				name = "khozrugan_castanorian_engineering"
				duration = 9125 #25 years
			}
		}
	}
}

khozrugan_ascension_of_artug = {
	slot = 3
	generic = no
	ai = yes
	potential = {
		tag = Z51
		NOT = { map_setup = map_setup_random }
	}
	has_country_shield = yes

	Z51_the_strongest_of_orcs = {
		icon = mission_japanese_samurai
		required_missions = {  }
		trigger = {
			OR = {
				has_country_modifier = khozrugan_defeated_pretender
				dynasty = "Ostokhan"
			}
		}
		effect = {
			add_prestige = 25
			add_church_power = 200
			add_fervor = 200
			west_castanor_region = {
				limit = {
					NOT = { is_core = ROOT }
					NOT = { is_permanent_claim = ROOT }
				}
				add_permanent_claim = ROOT
			}
		}
	}
	Z51_unite_khozrugan = {
		icon = mission_unite_home_region
		required_missions = { Z51_the_strongest_of_orcs }
		provinces_to_highlight = {
			region = west_castanor_region
			NOT = { country_or_non_sovereign_subject_holds = ROOT  }
		}
		trigger = {
			west_castanor_region = {
				type = all
				country_or_non_sovereign_subject_holds = ROOT
			}
		}
		effect = {
			add_country_modifier = {
				name = "khozrugan_united_tribes"
				duration = 9125 #25 years
			}
		}
	}
	Z51_prepare_for_invasion = {
		icon = mission_build_up_to_force_limit
		required_missions = { Z51_unite_khozrugan }
		trigger = {
			army_size_percentage = 1
			army_size = 40
			army_size = A13
		}
		effect = {
			add_country_modifier = {
				name = "khozrugan_inspired_warriors"
				duration = 9125 #25 years
			}
			alenvord_area = {
				limit = {
					NOT = { is_core = ROOT }
					NOT = { is_permanent_claim = ROOT }
				}
				add_permanent_claim = ROOT
			}
			balvord_area = {
				limit = {
					NOT = { is_core = ROOT }
					NOT = { is_permanent_claim = ROOT }
				}
				add_permanent_claim = ROOT
			}
			jonsway_area = {
				limit = {
					NOT = { is_core = ROOT }
					NOT = { is_permanent_claim = ROOT }
				}
				add_permanent_claim = ROOT
			}
		}
	}
	Z51_war_with_gawed = {
		icon = mission_integrate_the_purbias
		required_missions = { Z51_prepare_for_invasion }
		trigger = {
			OR = {
				war_with = A13
				NOT = { exists = A13 }
			}
		}
		effect = {
			add_country_modifier = {
				name = "khozrugan_influx_of_warriors"
				duration = 9125 #25 years
			}
		}
	}
	Z51_conquer_great_marches = {
		icon = mission_secure_khandesh
		required_missions = { Z51_war_with_gawed }
		provinces_to_highlight = {
			OR = {
				area = alenvord_area
				area = balvord_area
				area = jonsway_area
			}
			NOT = { owned_by = ROOT }
		}
		trigger = {
			alenvord_area = {
				type = all
				country_or_non_sovereign_subject_holds = ROOT
			}
			balvord_area = {
				type = all
				country_or_non_sovereign_subject_holds = ROOT
			}
			jonsway_area = {
				type = all
				country_or_non_sovereign_subject_holds = ROOT
			}
		}
		effect = {
			add_country_modifier = {
				name = "khozrugan_first_victory"
				duration = 9125 #25 years
			}
			alenic_expanse_area = {
				limit = {
					NOT = { is_core = ROOT }
					NOT = { is_permanent_claim = ROOT }
				}
				add_permanent_claim = ROOT
			}
			gawed_area = {
				limit = {
					NOT = { is_core = ROOT }
					NOT = { is_permanent_claim = ROOT }
				}
				add_permanent_claim = ROOT
			}
			south_alen_area = {
				limit = {
					NOT = { is_core = ROOT }
					NOT = { is_permanent_claim = ROOT }
				}
				add_permanent_claim = ROOT
			}
			westmounts_area = {
				limit = {
					NOT = { is_core = ROOT }
					NOT = { is_permanent_claim = ROOT }
				}
				add_permanent_claim = ROOT
			}
			moorhills_area = {
				limit = {
					NOT = { is_core = ROOT }
					NOT = { is_permanent_claim = ROOT }
				}
				add_permanent_claim = ROOT
			}
			beronmoor_area = {
				limit = {
					NOT = { is_core = ROOT }
					NOT = { is_permanent_claim = ROOT }
				}
				add_permanent_claim = ROOT
			}
		}
	}
	Z51_pillage_gaweton = {
		icon = mission_conquer_50_development
		required_missions = { Z51_conquer_great_marches }
		provinces_to_highlight = {
			province_id = 221
			NOT = { owned_by = ROOT }
		}
		trigger = {
			owns = 221
		}
		effect = {
			221 = {
				add_base_tax = -3
				add_base_production = -3
				add_base_manpower = -3
			}
			757 = {
				add_base_tax = 2
				add_base_production = 2
				add_base_manpower = 3
			}
			A13 = {
				country_event = { id = flavor_smallcountry.1 }
			}
			add_mil_power = 200
			add_prestige = 10
			add_country_modifier = {
				name = "khozrugan_crushed_enemy"
				duration = 9125 #25 years
			}
			vertesk_area = {
				limit = {
					NOT = { is_core = ROOT }
					NOT = { is_permanent_claim = ROOT }
				}
				add_permanent_claim = ROOT
			}
			floodmarches_area = {
				limit = {
					NOT = { is_core = ROOT }
					NOT = { is_permanent_claim = ROOT }
				}
				add_permanent_claim = ROOT
			}
		}
	}
	Z51_forced_abolitionism = {
		icon = mission_impaled_soldies
		required_missions = { Z51_pillage_gaweton }
		provinces_to_highlight = {
			province_id = 216
			NOT = { owned_by = ROOT }
		}
		trigger = {
			owns = 216
		}
		effect = {
			216 = {
				add_base_tax = -3
				add_base_production = -3
				add_base_manpower = -3
			}
			757 = {
				add_base_tax = 3
				add_base_production = 3
				add_base_manpower = 3
			}
			add_mil_power = 100
			add_prestige = 10
			add_country_modifier = {
				name = "khozrugan_impaled_slavers"
				duration = 9125 #25 years
			}
		}
	}
	Z51_new_base_of_operations = {
		icon = mission_secure_hajj_ports
		required_missions = { Z51_forced_abolitionism }
		provinces_to_highlight = {
			province_id = 216
			NOT = { base_manpower = 10 }
			NOT = { culture = rugan_orc }
			NOT = { is_state_core = ROOT }
		}
		trigger = {
			owns = 216
			216 = {
				base_manpower = 10
				culture = rugan_orc
				is_state_core = ROOT
				is_part_of_hre = no
			}
		}
		effect = {
			set_government_rank = 3
			add_mil_power = 300
			add_prestige = 25
			add_country_modifier = {
				name = "khozrugan_integrating_conquered_lands"
				duration = 9125 #25 years
			}
			216 = {
				move_capital_effect = yes
				change_province_name = Ogondar
				rename_capital = Ogondar
			}
			arbaran_area = {
				limit = {
					NOT = { is_core = ROOT }
					NOT = { is_permanent_claim = ROOT }
				}
				add_claim = ROOT
			}
			golden_plains_area = {
				limit = {
					NOT = { is_core = ROOT }
					NOT = { is_permanent_claim = ROOT }
				}
				add_claim = ROOT
			}
			cestir_area = {
				limit = {
					NOT = { is_core = ROOT }
					NOT = { is_permanent_claim = ROOT }
				}
				add_claim = ROOT
			}
		}
	}
	Z51_subjugate_arbaran = {
		icon = mission_subdue_rajputana
		required_missions = { Z51_new_base_of_operations }
		provinces_to_highlight = {
			OR = {
				area = arbaran_area
				area = golden_plains_area
				area = cestir_area
			}
			NOT = { owned_by = ROOT }
		}
		trigger = {
			arbaran_area = {
				type = all
				country_or_non_sovereign_subject_holds = ROOT
			}
			golden_plains_area = {
				type = all
				country_or_non_sovereign_subject_holds = ROOT
			}
			cestir_area = {
				type = all
				country_or_non_sovereign_subject_holds = ROOT
			}
		}
		effect = {
			add_prestige = 10
			damescrown_area = {
				limit = {
					NOT = { is_core = ROOT }
					NOT = { is_permanent_claim = ROOT }
				}
				add_claim = ROOT
			}
			heartland_borders_area = {
				limit = {
					NOT = { is_core = ROOT }
					NOT = { is_permanent_claim = ROOT }
				}
				add_claim = ROOT
			}
			derwing_area = {
				limit = {
					NOT = { is_core = ROOT }
					NOT = { is_permanent_claim = ROOT }
				}
				add_claim = ROOT
			}
		}
	}
	Z51_crownsmashers = {
		icon = mission_entrepot_of_india
		required_missions = { Z51_subjugate_arbaran }
		provinces_to_highlight = {
			OR = {
				area = damescrown_area
				area = heartland_borders_area
				area = derwing_area
			}
			NOT = { owned_by = ROOT }
		}
		trigger = {
			damescrown_area = {
				type = all
				country_or_non_sovereign_subject_holds = ROOT
			}
			heartland_borders_area = {
				type = all
				country_or_non_sovereign_subject_holds = ROOT
			}
			derwing_area = {
				type = all
				country_or_non_sovereign_subject_holds = ROOT
			}
		}
		effect = {
			add_country_modifier = {
				name = "khozrugan_conquered_trade_centers"
				duration = 9125 #25 years
			}
			esmaria_region = {
				limit = {
					NOT = { is_core = ROOT }
					NOT = { is_permanent_claim = ROOT }
				}
				add_claim = ROOT
			}
		}
	}
	Z51_conquer_esmaria = {
		icon = mission_control_the_desh
		required_missions = { Z51_crownsmashers }
		provinces_to_highlight = {
			region = esmaria_region
			NOT = { owned_by = ROOT }
		}
		trigger = {
			esmaria_region = {
				type = all
				country_or_non_sovereign_subject_holds = ROOT
			}
		}
		effect = {
			add_country_modifier = {
				name = "khozrugan_victory_is_near"
				duration = 9125 #25 years
			}
			damescrown_region = {
				limit = {
					NOT = { is_core = ROOT }
					NOT = { is_permanent_claim = ROOT }
				}
				add_claim = ROOT
			}
			west_dameshead_region = {
				limit = {
					NOT = { is_core = ROOT }
					NOT = { is_permanent_claim = ROOT }
				}
				add_claim = ROOT
			}
			east_dameshead_region = {
				limit = {
					NOT = { is_core = ROOT }
					NOT = { is_permanent_claim = ROOT }
				}
				add_claim = ROOT
			}
			the_borders_region = {
				limit = {
					NOT = { is_core = ROOT }
					NOT = { is_permanent_claim = ROOT }
				}
				add_claim = ROOT
			}
		}
	}
	Z51_no_more_unity = {
		icon = mission_empire
		required_missions = { Z51_conquer_esmaria }
		trigger = {
			eoa_is_dismantled = yes
		}
		effect = {
			add_prestige = 50
		}
	}
	Z51_unifiers_of_cannor = {
		icon = mission_unite_home_region
		position = 14
		required_missions = { Z51_no_more_lilac_wars Z51_no_more_unity Z51_anbenncost_expedition }
		trigger = {
			western_cannor_superregion = {
				type = all
				country_or_non_sovereign_subject_holds = ROOT
			}
		}
		effect = {
			add_country_modifier = {
				name = "khozrugan_conquerors_of_cannor"
				duration = -1
			}
		}
	}
}

khozrugan_borderlands = {
	slot = 4
	generic = no
	ai = yes
	potential = {
		tag = Z51
		NOT = { map_setup = map_setup_random }
	}
	has_country_shield = yes

	Z51_conquer_borderlands = {
		icon = mission_subdue_rajputana
		position = 3
		required_missions = { Z51_unite_khozrugan }
		provinces_to_highlight = {
			OR = {
				area = cursewood_area
				area = whistlevale_area
			}
			NOT = { owned_by = ROOT }
		}
		trigger = {
			cursewood_area = {
				type = all
				country_or_non_sovereign_subject_holds = ROOT
			}
			whistlevale_area = {
				type = all
				country_or_non_sovereign_subject_holds = ROOT
			}
		}
		effect = {
			add_country_modifier = {
				name = "khozrugan_integrating_new_lands"
				duration = 9125 #25 years
			}
		}
	}
}

khozrugan_alenic_reach = {
	slot = 4
	generic = no
	ai = yes
	potential = {
		tag = Z51
		NOT = { map_setup = map_setup_random }
	}
	has_country_shield = yes

	Z51_subjugate_alenic_reach = {
		position = 7
		icon = mission_conquer_riga
		required_missions = { Z51_pillage_gaweton }
		provinces_to_highlight = {
			region = alenic_reach_region
			NOT = { country_or_non_sovereign_subject_holds = ROOT  }
		}
		trigger = {
			alenic_reach_region = {
				type = all
				country_or_non_sovereign_subject_holds = ROOT
			}
		}
		effect = {
			add_mil_power = 100
			add_country_modifier = {
				name = "khozrugan_conquered_free_cities"
				duration = 9125 #25 years
			}
		}
	}
}

khozrugan_ibevar = {
	slot = 4
	generic = no
	ai = yes
	potential = {
		tag = Z51
		NOT = { map_setup = map_setup_random }
	}
	has_country_shield = yes

	Z51_invade_ibevar = {
		icon = mission_bengal_campaign
		position = 9
		required_missions = { Z51_new_base_of_operations }
		provinces_to_highlight = {
			OR = {
				area = north_ibevar_area
				area = south_ibevar_area
			}
			NOT = { owned_by = ROOT }
		}
		trigger = {
			NOT = {
				exists = A32
			}
			north_ibevar_area = {
				type = all
				country_or_non_sovereign_subject_holds = ROOT
			}
			south_ibevar_area = {
				type = all
				country_or_non_sovereign_subject_holds = ROOT
			}
		}
		effect = {
			add_mil_power = 100
			add_country_modifier = {
				name = "khozrugan_ibevari_wine"
				duration = 9125 #25 years
			}
		}
	}
}

khozrugan_dameria = {
	slot = 4
	generic = no
	ai = yes
	potential = {
		tag = Z51
		NOT = { map_setup = map_setup_random }
	}
	has_country_shield = yes

	Z51_damerian_green = {
		icon = mission_dominate_home_trade_node
		required_missions = { Z51_conquer_esmaria }
		position = 12
		provinces_to_highlight = {
			province_id = 10
			province_id = 277
		}
		trigger = {
			A04 = {
				NOT = { provinces_on_capital_continent_of = ROOT }
			}
			A45 = {
				NOT = { provinces_on_capital_continent_of = ROOT }
			}
			10 = {
				owned_by = ROOT
			}
			277 = {
				owned_by = ROOT
			}
		}
		effect = {
			add_country_modifier = {
				name = "khozrugan_new_fashion_trends"
				duration = 9125 #25 years
			}
		}
	}

	Z51_anbenncost_expedition = {
		icon = mission_cannons_firing
		required_missions = { Z51_damerian_green }
		position = 13
		provinces_to_highlight = {
			province_id = 8
		}
		trigger = {
			8 = {
				owned_by = ROOT
			}
		}
		effect = {
			add_prestige = 25
			add_country_modifier = {
				name = "khozrugan_most_desired_city_in_the_world"
				duration = 9125 #25 years
			}
		}
	}
}

khozrugan_army_tree = {
	slot = 5
	generic = no
	ai = no
	potential = {
		tag = Z51
		NOT = { map_setup = map_setup_random }
	}
	has_country_shield = yes

	Z51_worg_is_a_friend_of_orc = {
		icon = mission_marwari_horses
		required_missions = {  }
		trigger = {
			num_of_owned_provinces_with = {
				value = 5
				has_manpower_building_trigger = yes
				OR = {
					has_terrain = woods
					has_terrain = forest
				}
			}
		}
		effect = {
			add_country_modifier = {
				name = "khozrugan_worg_cavalry"
				duration = 9125 #25 years
			}
		}
	}
	Z51_organized_army = {
		icon = mission_new_army
		required_missions = { Z51_worg_is_a_friend_of_orc }
		position = 3
		trigger = {
			army_size = 100
			num_of_owned_provinces_with = {
				value = 20
				has_manpower_building_trigger = yes
				has_forcelimit_building_trigger = yes
			}
		}
		effect = {
			create_general = { tradition = 100 }
			add_country_modifier = {
				name = "khozrugan_organized_army"
				duration = 9125 #25 years
			}
		}
	}
}

khozrugan_corvuria = {
	slot = 5
	generic = no
	ai = yes
	potential = {
		tag = Z51
		NOT = { map_setup = map_setup_random }
	}
	has_country_shield = yes

	Z51_conquer_corvuria = {
		icon = mission_impaled_soldies
		position = 10
		required_missions = { Z51_invade_ibevar }
		provinces_to_highlight = {
			region = dostanor_region
			NOT = { country_or_non_sovereign_subject_holds = ROOT  }
		}
		trigger = {
			dostanor_region = {
				type = all
				country_or_non_sovereign_subject_holds = ROOT
			}
		}
		effect = {
			add_country_modifier = {
				name = "khozrugan_new_subjects"
				duration = 9125 #25 years
			}
		}
	}
}