
country_decisions = {

	form_great_bulwar = {
		major = yes
		potential = {
			culture_group = bulwari
			religion_group = bulwari
			normal_or_historical_nations = yes
			was_never_end_game_tag_trigger = yes
			NOT = { has_country_flag = formed_great_bulwar_flag }
			OR = {
				ai = no
				is_playing_custom_nation = no
			}
			NOT = { tag = F52 }
			NOT = { exists = F52 }
		}
		provinces_to_highlight = {
			OR = {
				AND = {
					superregion = bulwar_superregion
					NOT = {
						calc_true_if = {
							amount = 100
							all_province = {
								superregion = bulwar_superregion
								owned_by = ROOT
							}
						}
					}
					NOT = { owned_by = ROOT }
				}
				AND = {
					OR = {
						province_id = 601
						province_id = 536
						province_id = 613
						province_id = 565
						province_id = 560
						province_id = 591
					}
					OR = {
						NOT = { owned_by = ROOT }
						NOT = { is_core = ROOT }
					}
				}
				AND = {
					province_id = 643
					OR = {
						NOT = { owned_by = ROOT }
						NOT = { is_core = ROOT }
					}
					NOT = {
						521 = {
							owned_by = ROOT
							is_core = ROOT
						}
					}
				}
				AND = {
					province_id = 521
					OR = {
						NOT = { owned_by = ROOT }
						NOT = { is_core = ROOT }
					}
					NOT = {
						643 = {
							owned_by = ROOT
							is_core = ROOT
						}
					}
				}
			}
		}
		allow = {
			is_at_war = no
			is_free_or_tributary_trigger = yes
			is_nomad = no
			num_of_owned_provinces_with = {
				value = 100
				superregion = bulwar_superregion
			}
			owns_core_province = 601
			owns_core_province = 536
			owns_core_province = 613
			owns_core_province = 565
			owns_core_province = 560
			owns_core_province = 591
			OR = {
				owns_core_province = 643
				owns_core_province = 521
			}
		}
		effect = {
			change_tag = F52
			swap_non_generic_missions = yes
			hidden_effect = { restore_country_name = yes }
			hidden_effect = {
				every_owned_province = {
					limit = {
						is_part_of_hre = yes
					}
					set_in_empire = no
				}
			}
			set_government_rank = 3
			add_prestige = 50
			if = {
				limit = { has_custom_ideas = no }
				country_event = { id = ideagroups.1 } #Swap Ideas
			}
			add_country_modifier = {
				name = "centralization_modifier"
				duration = 7300
			}
			set_country_flag = formed_great_bulwar_flag
			
			bulwar_superregion = {
				limit = { NOT = { owned_by = ROOT is_core = ROOT } }
				add_permanent_claim = ROOT
			}
			
			lock_racial_admin = yes
		}
		ai_will_do = {
			factor = 1
		}
	}
	
}
