
country_decisions = {

	# Unite one_xia - war
	form_one_xia = {
		major = yes
		potential = {
			has_reform = wulin
			NOT = { tag = Y99 }
			NOT = { has_country_flag = formed_one_xia_flag }
			was_never_end_game_tag_trigger = yes
			any_country = {
				vassal_of = ROOT
				has_reform = xiaken
			}
		}
		provinces_to_highlight = {
			OR = {
				province_id = 4559
			}
			NOT = { owned_by = ROOT }
		}
		allow = {
			NOT = { exists = Y99 }
			is_free_or_tributary_trigger = yes
			is_nomad = no
			is_at_war = no
			num_of_cities = 30
			owns = 4559
		}
		effect = {
			remove_government_reform = wulin
			#set_legacy_government = despotic_monarchy
			set_government_rank = 3
			custom_tooltip = unite_one_xia_subject_tooltip
			hidden_effect = {
				every_subject_country = {
					limit = {
						has_reform = xiaken
					}
					ROOT = {
						free_vassal = PREV
					}
					remove_government_reform = xiaken
					#set_legacy_government = despotic_monarchy
					every_owned_province = {
						remove_core = Y99
					}
				}
			}
			change_tag = Y99
			hidden_effect = { restore_country_name = yes }
			set_country_flag = formed_one_xia_flag
			swap_non_generic_missions = yes
			if = {
				limit = { has_custom_ideas = no }
				country_event = { id = ideagroups.1 } #Swap Ideas
			}
		}
		ai_will_do = {
			factor = 1
			modifier = {
				factor = 0
				NOT = { num_of_cities = 30 }
			}
		}
	}
	
	# United one_xia - peace
	united_one_xia = {
		major = yes
		potential = {
			has_reform = wulin
			NOT = { has_country_flag = formed_one_xia_flag }
			was_never_end_game_tag_trigger = yes
			NOT = { exists = Y99 }
		}
		allow = {
			NOT = { exists = Y99 }
			is_free_or_tributary_trigger = yes
			owns = 4559
			all_country = {
				NOT = {
					has_reform = xiaken
				}
				NOT = {
					has_reform = indep_xiaken
				}
			}
			is_at_war = no
		}
		effect = {
			change_tag = Y99
			hidden_effect = { restore_country_name = yes }
			remove_government_reform = wulin
			#set_legacy_government = despotic_monarchy
			set_country_flag = formed_one_xia_flag
			set_government_rank = 3
			add_legitimacy = 100
			add_adm_power = 100
			add_dip_power = 100
			add_mil_power = 100
			swap_non_generic_missions = yes
			if = {
				limit = { has_custom_ideas = no }
				country_event = { id = ideagroups.1 } #Swap Ideas
			}
		}
		ai_will_do = {
			factor = 1
		}
	}
	
	
	
}
