namespace = eordellon

#Funereal Season Honoring
country_event = {
	id = eordellon.1
	title = eordellon.1.t
	desc = eordellon.1.d
	picture = KING_SICK_IN_BED_eventPicture
	
	is_triggered_only = yes
	
	trigger = {
		OR = {
			religion = eordellon
			religion = spring_court
			religion = summer_court
			religion = autumn_court
			religion = spring_court
		}
		capital_scope = { superregion = eordand_superregion }
		NOT = { has_ruler_flag = eordan_funeral_regency } #so it doesn't trigger for regency ending
	}
	
	immediate = {
		hidden_effect = {
			if = {
				limit = { has_regency = yes }
				set_heir_flag = eordan_funeral_regency
			}
		}
	}
	
	option = { #Spring
		name = eordellon.1.a
		trigger = {
			OR = {
				religion = eordellon
				accepted_culture = selphereg
				primary_culture = selphereg
			}
		}
		ai_chance = {
			factor = 100
			
			modifier = {
				factor = 10
				religion = spring_court
			}
		}
		add_adm_power = 10
		add_piety = 0.10
	}
	option = { #Summer
		name = eordellon.1.b
		trigger = {
			OR = {
				religion = eordellon
				accepted_culture = caamas
				primary_culture = caamas
			}
		}
		ai_chance = {
			factor = 100
			
			modifier = {
				factor = 10
				religion = summer_court
			}
		}
		add_dip_power = 10
		add_piety = 0.10
	}
	option = { #Autumn
		name = eordellon.1.c
		trigger = {
			OR = {
				religion = eordellon
				accepted_culture = tuathak
				primary_culture = tuathak
			}
		}
		ai_chance = {
			factor = 100
			
			modifier = {
				factor = 10
				religion = autumn_court
			}
		}
		add_mil_power = 10
		add_piety = -0.10
	}
	option = { #Winter
		name = eordellon.1.dd
		trigger = {
			OR = {
				religion = eordellon
				accepted_culture = snecboth
				primary_culture = snecboth
			}
		}
		ai_chance = {
			factor = 100
			
			modifier = {
				factor = 10
				religion = winter_court
			}
		}
		increase_legitimacy_small_effect = yes
		add_piety = -0.10
	}
	option = { #Precursor
		name = eordellon.1.e
		ai_chance = {
			factor = 100
			
			modifier = {
				factor = 2
				religion = eordellon
			}
		}
		add_prestige = 5
		add_years_of_income = -0.05
	}
	
}

country_event = { #Shift in Seasons
	id = eordellon.2
	title = eordellon.2.t
	desc = eordellon.2.d
	picture = STREET_SPEECH_eventPicture
	
	is_triggered_only = yes
	
	trigger = {
		uses_piety = yes
		OR = {
			religion = eordellon
			religion = spring_court
			religion = summer_court
			religion = autumn_court
			religion = winter_court
		}
	}
	mean_time_to_happen = {
		days = 1
	}
	immediate = {
		hidden_effect = {
			random_owned_province = {
				limit = { 
					is_state = yes
					NOT = { is_capital = yes} 
				}
				save_event_target_as = fey_shift_seasons
				random_list = {
					20 = {
						trigger = { NOT = { religion = eordellon } }
						change_religion = eordellon
					}
					20 = {
						trigger = { NOT = { religion = spring_court } }
						change_religion = spring_court
					}
					20 = {
						trigger = { NOT = { religion = summer_court } }
						change_religion = summer_court
					}
					20 = {
						trigger = { NOT = { religion = autumn_court } }
						change_religion = autumn_court
					}
					20 = {
						trigger = { NOT = { religion = winter_court } }
						change_religion = winter_court
					}
				}
			}
			random_owned_province = {
				limit = { 
					is_state = yes
					NOT = { is_capital = yes} 
				}
				save_event_target_as = fey_shift_seasons
				random_list = {
					20 = {
						trigger = { NOT = { religion = eordellon } }
						change_religion = eordellon
					}
					20 = {
						trigger = { NOT = { religion = spring_court } }
						change_religion = spring_court
					}
					20 = {
						trigger = { NOT = { religion = summer_court } }
						change_religion = summer_court
					}
					20 = {
						trigger = { NOT = { religion = autumn_court } }
						change_religion = autumn_court
					}
					20 = {
						trigger = { NOT = { religion = winter_court } }
						change_religion = winter_court
					}
				}
			}
		}
	}
	
	option = {
		name = eordellon.2.a
		
		add_country_modifier = { name = "fey_alignment_shift_tolerance" duration = 3650 }
		add_piety = 0.1
	}
	option = {
		name = eordellon.2.b
		
		event_target:fey_shift_seasons = {
			random_list = {
				30 = {
					spawn_rebels = {
						type = heretic_rebels
						size = 1
					}
				}
				70 = { }
			}
		}
		add_country_modifier = { name = "fey_alignment_shift_convert" duration = 3650 }
		add_piety = -0.1
	}
	
}
